0.000000000000000000e+00,-2.774395199189760852e-01,5.440629926152401596e-01,-1.241378631577925384e+00
1.740494544925093312e-02,-2.853818332466944163e-01,5.387053175818037332e-01,-1.246494232461749840e+00
3.480989089850186624e-02,-2.927081470338668279e-01,5.335469908310417342e-01,-1.251353210338950639e+00
5.221483634775279936e-02,-2.993443923800234163e-01,5.286842485983710427e-01,-1.255885481667940118e+00
6.961978179700373248e-02,-3.052232355002332254e-01,5.242182873923709741e-01,-1.260008796506018269e+00
8.702472724625466560e-02,-3.102841295894672724e-01,5.202533733189261822e-01,-1.263628790061076312e+00
1.044296726955055987e-01,-3.144729706248920453e-01,5.168947381644196648e-01,-1.266638976560404695e+00
1.218346181447565318e-01,-3.177413714732446048e-01,5.142462722583694967e-01,-1.268920652864117038e+00
1.392395635940074650e-01,-3.200455980035851189e-01,5.124079995579566837e-01,-1.270342700486512433e+00
1.566445090432583842e-01,-3.213452402176520395e-01,5.114732907815484619e-01,-1.270761307452304312e+00
1.740494544925093312e-01,-3.216017210184191621e-01,5.115257397683219409e-01,-1.270019677050459483e+00
1.914543999417602782e-01,-3.207767764338756433e-01,5.126356023312768073e-01,-1.267947850384987918e+00
2.088593453910111974e-01,-3.188310757248657423e-01,5.148556837291303756e-01,-1.264362844515493078e+00
2.262642908402621167e-01,-3.157231892845618892e-01,5.182165714002006096e-01,-1.259069397182359440e+00
2.436692362895130637e-01,-3.114091561587411516e-01,5.227211579644527317e-01,-1.251861708173517274e+00
2.610741817387640107e-01,-3.058429469098378761e-01,5.283385027525389077e-01,-1.242526664918164103e+00
2.784791271880149299e-01,-2.989781501542015385e-01,5.349972556837864213e-01,-1.230849113343696954e+00
2.958840726372658492e-01,-2.907712116452396689e-01,5.425791268519325472e-01,-1.216619746606724783e+00
3.132890180865167684e-01,-2.811864917635476524e-01,5.509132233018930735e-01,-1.199646079543005506e+00
3.306939635357677432e-01,-2.702032416284119720e-01,5.597724523365331661e-01,-1.179766690340774193e+00
3.480989089850186624e-01,-2.578242943318390101e-01,5.688735184777646836e-01,-1.156868386205361254e+00
3.655038544342695817e-01,-2.440858164259567531e-01,5.778821705578698342e-01,-1.130905174817543823e+00
3.829087998835205564e-01,-2.290669128064364291e-01,5.864250995152145984e-01,-1.101916980775897947e+00
4.003137453327714756e-01,-2.128973556215437435e-01,5.941090861815004898e-01,-1.070045153832670293e+00
4.177186907820223949e-01,-1.957614250194551764e-01,6.005466269190312678e-01,-1.035541319426501294e+00
4.351236362312733141e-01,-1.778960381860962559e-01,6.053855442539779474e-01,-9.987663997079189171e-01
4.525285816805242334e-01,-1.595821403460396526e-01,6.083385140727747276e-01,-9.601779096280327330e-01
4.699335271297752081e-01,-1.411296539649232462e-01,6.092076441544136411e-01,-9.203057810775491232e-01
4.873384725790261274e-01,-1.228577815375421489e-01,6.078997044615147560e-01,-8.797194398663474857e-01
5.047434180282770466e-01,-1.050736251149338163e-01,6.044293713008838109e-01,-8.389908495638526142e-01
5.221483634775280214e-01,-8.805248698367436344e-02,5.989103894013889651e-01,-7.986590393793088216e-01
5.395533089267788851e-01,-7.202271193005249650e-02,5.915370236420816052e-01,-7.592009986524869136e-01
5.569582543760298599e-01,-5.715674603962071776e-02,5.825597816715749611e-01,-7.210120598042307760e-01
5.743631998252808346e-01,-4.356867397029343114e-02,5.722597745507663758e-01,-6.843966883498781018e-01
5.917681452745316983e-01,-3.131730842741717313e-02,5.609253837586796188e-01,-6.495686589463550709e-01
6.091730907237826731e-01,-2.041321014442685350e-02,5.488335879140905371e-01,-6.166583648356932512e-01
6.265780361730335368e-01,-1.082784834081543072e-02,5.362368945474959014e-01,-5.857245785719334963e-01
6.439829816222845116e-01,-2.503337149432296842e-03,5.233556930946519081e-01,-5.567681851905255108e-01
6.613879270715354863e-01,4.638390080576708548e-03,5.103751485866858673e-01,-5.297459684126054613e-01
6.787928725207863501e-01,1.068764695790868496e-02,4.974454693046775899e-01,-5.045831917864092020e-01
6.961978179700373248e-01,1.574059018598716886e-02,4.846843930258196709e-01,-4.811843109538838648e-01
7.136027634192882996e-01,1.989435876854180399e-02,4.721809152566416867e-01,-4.594416024538584553e-01
7.310077088685391633e-01,2.324360399935440635e-02,4.599995236331324566e-01,-4.392417870007632730e-01
7.484126543177901381e-01,2.587818068687008574e-02,4.481844379578654447e-01,-4.204708853906196642e-01
7.658175997670411128e-01,2.788175266591829890e-02,4.367635514842257982e-01,-4.030176097651763101e-01
7.832225452162919765e-01,2.933108319367874403e-02,4.257519158658650826e-01,-3.867755969569402485e-01
8.006274906655429513e-01,3.029581492117193464e-02,4.151547127140048921e-01,-3.716447615121944437e-01
8.180324361147938150e-01,3.083858291061765747e-02,4.049697176950871613e-01,-3.575320026087078773e-01
8.354373815640447898e-01,3.101534094619907977e-02,3.951892984592231262e-01,-3.443514529974791571e-01
8.528423270132957645e-01,3.087581303757953519e-02,3.858020042212532141e-01,-3.320244155144892462e-01
8.702472724625466283e-01,3.046400760388144613e-02,3.767938094276032102e-01,-3.204790963511792712e-01
8.876522179117976030e-01,2.981875159932282499e-02,3.681490716146481601e-01,-3.096502148000799259e-01
9.050571633610484668e-01,2.897421658911040684e-02,3.598512576585045086e-01,-2.994785461766342749e-01
9.224621088102994415e-01,2.796041945547701399e-02,3.518834852637765520e-01,-2.899104371562051252e-01
9.398670542595504163e-01,2.680368792196389724e-02,3.442289190037254309e-01,-2.808973198277544547e-01
9.572719997088012800e-01,2.552708621760638175e-02,3.368710531915631301e-01,-2.723952413789499372e-01
9.746769451580522547e-01,2.415079960070004930e-02,3.297939076506619105e-01,-2.643644196510864797e-01
9.920818906073032295e-01,2.269247862055379095e-02,3.229821571594690965e-01,-2.567688301499218562e-01
1.009486836056554093e+00,2.116754528867331384e-02,3.164212109514107918e-01,-2.495758269305166088e-01
1.026891781505804957e+00,1.958946403254650109e-02,3.100972550665109240e-01,-2.427557976772494186e-01
1.044296726955056043e+00,1.796998061318733422e-02,3.039972674707988598e-01,-2.362818519643552495e-01
1.061701672404306906e+00,1.631933224143336525e-02,2.981090135694284826e-01,-2.301295408789606478e-01
1.079106617853557770e+00,1.464643202474673507e-02,2.924210279348452568e-01,-2.242766057513182476e-01
1.096511563302808856e+00,1.295903068211573875e-02,2.869225866598046903e-01,-2.187027535462096606e-01
1.113916508752059720e+00,1.126385822388875114e-02,2.816036736479481939e-01,-2.133894564404731631e-01
1.131321454201310583e+00,9.566748034861552799e-03,2.764549433067099438e-01,-2.083197731847382661e-01
1.148726399650561669e+00,7.872745540916657389e-03,2.714676814554609630e-01,-2.034781899815590323e-01
1.166131345099812533e+00,6.186203392934413667e-03,2.666337657632407154e-01,-1.988504787791347539e-01
1.183536290549063397e+00,4.510864872631220601e-03,2.619456266511447917e-01,-1.944235710609079071e-01
1.200941235998314482e+00,2.849937016321151765e-03,2.573962093076364588e-01,-1.901854453944047674e-01
1.218346181447565346e+00,1.206154765144414054e-03,2.529789372495072630e-01,-1.861250271799533562e-01
1.235751126896816210e+00,-4.181627163727239167e-04,2.486876777005878614e-01,-1.822320992069890733e-01
1.253156072346067074e+00,-2.021062558660680335e-03,2.445167089416399597e-01,-1.784972217799993544e-01
1.270561017795318159e+00,-3.600914676673179927e-03,2.404606896983035869e-01,-1.749116613168739953e-01
1.287965963244569023e+00,-5.156373477800151560e-03,2.365146305717679698e-01,-1.714673264493515314e-01
1.305370908693819887e+00,-6.686344133527590342e-03,2.326738674730677303e-01,-1.681567107688892171e-01
1.322775854143070973e+00,-8.189952845664280265e-03,2.289340369920389862e-01,-1.649728414624576089e-01
1.340180799592321836e+00,-9.666520612093040810e-03,2.252910536124476670e-01,-1.619092331724067968e-01
1.357585745041572700e+00,-1.111554006127972276e-02,2.217410886729961894e-01,-1.589598464937592714e-01
1.374990690490823786e+00,-1.253665498046688601e-02,2.182805509677347433e-01,-1.561190505920718175e-01
1.392395635940074650e+00,-1.392964221072146187e-02,2.149060688773458683e-01,-1.533815894864158369e-01
1.409800581389325513e+00,-1.529439562380468902e-02,2.116144739235911731e-01,-1.507425515959541773e-01
1.427205526838576599e+00,-1.663091193204174756e-02,2.084027856420757885e-01,-1.481973421959458248e-01
1.444610472287827463e+00,-1.793927811377198436e-02,2.052681976727201152e-01,-1.457416584705700235e-01
1.462015417737078327e+00,-1.921966026418774412e-02,2.022080649723742019e-01,-1.433714668863821651e-01
1.479420363186329412e+00,-2.047229370501668644e-02,1.992198920596271183e-01,-1.410829826422266287e-01
1.496825308635580276e+00,-2.169747420703895327e-02,1.963013222076329667e-01,-1.388726509794689923e-01
1.514230254084831140e+00,-2.289555019729190219e-02,1.934501275066148329e-01,-1.367371301610501855e-01
1.531635199534082226e+00,-2.406691583836216217e-02,1.906641997234672925e-01,-1.346732759495287701e-01
1.549040144983333089e+00,-2.521200488070978601e-02,1.879415418913831792e-01,-1.326781274332728966e-01
1.566445090432583953e+00,-2.633128520078578672e-02,1.852802605677434933e-01,-1.307488940667216326e-01
1.583850035881834817e+00,-2.742525394801872962e-02,1.826785587034878144e-01,-1.288829438053590293e-01
1.601254981331085903e+00,-2.849443323276748541e-02,1.801347290718759431e-01,-1.270777922290379225e-01
1.618659926780336766e+00,-2.953936629522728452e-02,1.776471482089143072e-01,-1.253310925587461377e-01
1.636064872229587630e+00,-3.056061410219155020e-02,1.752142708217570843e-01,-1.236406264820131273e-01
1.653469817678838716e+00,-3.155875232463634106e-02,1.728346246251570295e-01,-1.220042957111175802e-01
1.670874763128089580e+00,-3.253436865441988041e-02,1.705068055694626272e-01,-1.204201142061507163e-01
1.688279708577340443e+00,-3.348806042307154313e-02,1.682294734268477698e-01,-1.188862010020211302e-01
1.705684654026591529e+00,-3.442043248976287689e-02,1.660013477053397246e-01,-1.174007735846870071e-01
1.723089599475842393e+00,-3.533209536918452409e-02,1.638212038628884537e-01,-1.159621417674402410e-01
1.740494544925093257e+00,-3.622366357325593200e-02,1.616878697961500466e-01,-1.145687020229770592e-01
1.757899490374344342e+00,-3.709575414341853561e-02,1.596002225808588748e-01,-1.132189322313475188e-01
1.775304435823595206e+00,-3.794898535276484269e-02,1.575571854427115503e-01,-1.119113868077884488e-01
1.792709381272846070e+00,-3.878397555947044051e-02,1.555577249395311557e-01,-1.106446921779197234e-01
1.810114326722096934e+00,-3.960134219494872848e-02,1.536008483371505140e-01,-1.094175425708769078e-01
1.827519272171348019e+00,-4.040170087189619980e-02,1.516856011630176027e-01,-1.082286961037524781e-01
1.844924217620598883e+00,-4.118566459893226867e-02,1.498110649229081603e-01,-1.070769711331920060e-01
1.862329163069849747e+00,-4.195384308991889633e-02,1.479763549674296130e-01,-1.059612428522386518e-01
1.879734108519100833e+00,-4.270684215726033850e-02,1.461806184961501609e-01,-1.048804401125103258e-01
1.897139053968351696e+00,-4.344526317958393585e-02,1.444230326882818272e-01,-1.038335424536198787e-01
1.914543999417602560e+00,-4.416970263516631356e-02,1.427028029497873218e-01,-1.028195773233465393e-01
1.931948944866853646e+00,-4.488075169335251080e-02,1.410191612677134665e-01,-1.018376174735638046e-01
1.949353890316104509e+00,-4.557899585698514666e-02,1.393713646633278624e-01,-1.008867785182210042e-01
1.966758835765355373e+00,-4.626501464957564341e-02,1.377586937364326525e-01,-9.996621664090818427e-02
1.984163781214606459e+00,-4.693938134156497299e-02,1.361804512938605827e-01,-9.907512644058077966e-02
2.001568726663857323e+00,-4.760266271060731302e-02,1.346359610558458819e-01,-9.821273890504483850e-02
2.018973672113108186e+00,-4.825541883131052867e-02,1.331245664344913315e-01,-9.737831950266302716e-02
2.036378617562359050e+00,-4.889820289034310652e-02,1.316456293791185006e-01,-9.657116638357937655e-02
2.053783563011609914e+00,-4.953156102323971743e-02,1.301985292837710695e-01,-9.579060868249734961e-02
2.071188508460861222e+00,0.000000000000000000e+00,0.000000000000000000e+00,-0.000000000000000000e+00
2.088593453910112085e+00,0.000000000000000000e+00,0.000000000000000000e+00,-0.000000000000000000e+00
2.105998399359362949e+00,0.000000000000000000e+00,0.000000000000000000e+00,-0.000000000000000000e+00
2.123403344808613813e+00,0.000000000000000000e+00,0.000000000000000000e+00,-0.000000000000000000e+00
2.140808290257864677e+00,0.000000000000000000e+00,0.000000000000000000e+00,-0.000000000000000000e+00
2.158213235707115540e+00,0.000000000000000000e+00,0.000000000000000000e+00,-0.000000000000000000e+00
2.175618181156366848e+00,0.000000000000000000e+00,0.000000000000000000e+00,-0.000000000000000000e+00
2.193023126605617712e+00,0.000000000000000000e+00,0.000000000000000000e+00,-0.000000000000000000e+00
2.210428072054868576e+00,0.000000000000000000e+00,0.000000000000000000e+00,-0.000000000000000000e+00
2.227833017504119439e+00,0.000000000000000000e+00,0.000000000000000000e+00,-0.000000000000000000e+00
2.245237962953370303e+00,0.000000000000000000e+00,0.000000000000000000e+00,-0.000000000000000000e+00
2.262642908402621167e+00,0.000000000000000000e+00,0.000000000000000000e+00,-0.000000000000000000e+00
2.280047853851872031e+00,0.000000000000000000e+00,0.000000000000000000e+00,-0.000000000000000000e+00
2.297452799301123338e+00,0.000000000000000000e+00,0.000000000000000000e+00,-0.000000000000000000e+00
2.314857744750374202e+00,0.000000000000000000e+00,0.000000000000000000e+00,-0.000000000000000000e+00
2.332262690199625066e+00,0.000000000000000000e+00,0.000000000000000000e+00,-0.000000000000000000e+00
2.349667635648875930e+00,0.000000000000000000e+00,0.000000000000000000e+00,-0.000000000000000000e+00
2.367072581098126793e+00,0.000000000000000000e+00,0.000000000000000000e+00,-0.000000000000000000e+00
2.384477526547377657e+00,0.000000000000000000e+00,0.000000000000000000e+00,-0.000000000000000000e+00
2.401882471996628965e+00,0.000000000000000000e+00,0.000000000000000000e+00,-0.000000000000000000e+00
2.419287417445879829e+00,0.000000000000000000e+00,0.000000000000000000e+00,-0.000000000000000000e+00
2.436692362895130692e+00,0.000000000000000000e+00,0.000000000000000000e+00,-0.000000000000000000e+00
2.454097308344381556e+00,0.000000000000000000e+00,0.000000000000000000e+00,-0.000000000000000000e+00
2.471502253793632420e+00,0.000000000000000000e+00,0.000000000000000000e+00,-0.000000000000000000e+00
2.488907199242883284e+00,0.000000000000000000e+00,0.000000000000000000e+00,-0.000000000000000000e+00
2.506312144692134147e+00,0.000000000000000000e+00,0.000000000000000000e+00,-0.000000000000000000e+00
2.523717090141385455e+00,0.000000000000000000e+00,0.000000000000000000e+00,-0.000000000000000000e+00
2.541122035590636319e+00,0.000000000000000000e+00,0.000000000000000000e+00,-0.000000000000000000e+00
2.558526981039887183e+00,0.000000000000000000e+00,0.000000000000000000e+00,-0.000000000000000000e+00
2.575931926489138046e+00,0.000000000000000000e+00,0.000000000000000000e+00,-0.000000000000000000e+00
2.593336871938388910e+00,0.000000000000000000e+00,0.000000000000000000e+00,-0.000000000000000000e+00
2.610741817387639774e+00,0.000000000000000000e+00,0.000000000000000000e+00,-0.000000000000000000e+00
2.628146762836891082e+00,0.000000000000000000e+00,0.000000000000000000e+00,-0.000000000000000000e+00
2.645551708286141945e+00,0.000000000000000000e+00,0.000000000000000000e+00,-0.000000000000000000e+00
2.662956653735392809e+00,0.000000000000000000e+00,0.000000000000000000e+00,-0.000000000000000000e+00
2.680361599184643673e+00,0.000000000000000000e+00,0.000000000000000000e+00,-0.000000000000000000e+00
2.697766544633894537e+00,0.000000000000000000e+00,0.000000000000000000e+00,-0.000000000000000000e+00
2.715171490083145400e+00,0.000000000000000000e+00,0.000000000000000000e+00,-0.000000000000000000e+00
2.732576435532396708e+00,0.000000000000000000e+00,0.000000000000000000e+00,-0.000000000000000000e+00
2.749981380981647572e+00,0.000000000000000000e+00,0.000000000000000000e+00,-0.000000000000000000e+00
2.767386326430898436e+00,0.000000000000000000e+00,0.000000000000000000e+00,-0.000000000000000000e+00
2.784791271880149299e+00,0.000000000000000000e+00,0.000000000000000000e+00,-0.000000000000000000e+00
2.802196217329400163e+00,0.000000000000000000e+00,0.000000000000000000e+00,-0.000000000000000000e+00
2.819601162778651027e+00,0.000000000000000000e+00,0.000000000000000000e+00,-0.000000000000000000e+00
2.837006108227901890e+00,0.000000000000000000e+00,0.000000000000000000e+00,-0.000000000000000000e+00
2.854411053677153198e+00,0.000000000000000000e+00,0.000000000000000000e+00,-0.000000000000000000e+00
2.871815999126404062e+00,0.000000000000000000e+00,0.000000000000000000e+00,-0.000000000000000000e+00
2.889220944575654926e+00,0.000000000000000000e+00,0.000000000000000000e+00,-0.000000000000000000e+00
2.906625890024905789e+00,0.000000000000000000e+00,0.000000000000000000e+00,-0.000000000000000000e+00
2.924030835474156653e+00,0.000000000000000000e+00,0.000000000000000000e+00,-0.000000000000000000e+00
2.941435780923407517e+00,0.000000000000000000e+00,0.000000000000000000e+00,-0.000000000000000000e+00
2.958840726372658825e+00,0.000000000000000000e+00,0.000000000000000000e+00,-0.000000000000000000e+00
2.976245671821909689e+00,0.000000000000000000e+00,0.000000000000000000e+00,-0.000000000000000000e+00
2.993650617271160552e+00,0.000000000000000000e+00,0.000000000000000000e+00,-0.000000000000000000e+00
3.011055562720411416e+00,0.000000000000000000e+00,0.000000000000000000e+00,-0.000000000000000000e+00
3.028460508169662280e+00,0.000000000000000000e+00,0.000000000000000000e+00,-0.000000000000000000e+00
3.045865453618913143e+00,0.000000000000000000e+00,0.000000000000000000e+00,-0.000000000000000000e+00
3.063270399068164451e+00,0.000000000000000000e+00,0.000000000000000000e+00,-0.000000000000000000e+00
3.080675344517415315e+00,0.000000000000000000e+00,0.000000000000000000e+00,-0.000000000000000000e+00
3.098080289966666179e+00,0.000000000000000000e+00,0.000000000000000000e+00,-0.000000000000000000e+00
3.115485235415917042e+00,0.000000000000000000e+00,0.000000000000000000e+00,-0.000000000000000000e+00
3.132890180865167906e+00,0.000000000000000000e+00,0.000000000000000000e+00,-0.000000000000000000e+00
3.150295126314418770e+00,0.000000000000000000e+00,0.000000000000000000e+00,-0.000000000000000000e+00
3.167700071763669634e+00,0.000000000000000000e+00,0.000000000000000000e+00,-0.000000000000000000e+00
3.185105017212920941e+00,0.000000000000000000e+00,0.000000000000000000e+00,-0.000000000000000000e+00
3.202509962662171805e+00,0.000000000000000000e+00,0.000000000000000000e+00,-0.000000000000000000e+00
3.219914908111422669e+00,0.000000000000000000e+00,0.000000000000000000e+00,-0.000000000000000000e+00
3.237319853560673533e+00,0.000000000000000000e+00,0.000000000000000000e+00,-0.000000000000000000e+00
3.254724799009924396e+00,0.000000000000000000e+00,0.000000000000000000e+00,-0.000000000000000000e+00
3.272129744459175260e+00,0.000000000000000000e+00,0.000000000000000000e+00,-0.000000000000000000e+00
3.289534689908426568e+00,0.000000000000000000e+00,0.000000000000000000e+00,-0.000000000000000000e+00
3.306939635357677432e+00,0.000000000000000000e+00,0.000000000000000000e+00,-0.000000000000000000e+00
3.324344580806928295e+00,0.000000000000000000e+00,0.000000000000000000e+00,-0.000000000000000000e+00
3.341749526256179159e+00,0.000000000000000000e+00,0.000000000000000000e+00,-0.000000000000000000e+00
3.359154471705430023e+00,0.000000000000000000e+00,0.000000000000000000e+00,-0.000000000000000000e+00
3.376559417154680887e+00,0.000000000000000000e+00,0.000000000000000000e+00,-0.000000000000000000e+00
3.393964362603931750e+00,0.000000000000000000e+00,0.000000000000000000e+00,-0.000000000000000000e+00
3.411369308053183058e+00,0.000000000000000000e+00,0.000000000000000000e+00,-0.000000000000000000e+00
3.428774253502433922e+00,0.000000000000000000e+00,0.000000000000000000e+00,-0.000000000000000000e+00
3.446179198951684786e+00,0.000000000000000000e+00,0.000000000000000000e+00,-0.000000000000000000e+00
3.463584144400935649e+00,0.000000000000000000e+00,0.000000000000000000e+00,-0.000000000000000000e+00
3.480989089850186513e+00,0.000000000000000000e+00,0.000000000000000000e+00,-0.000000000000000000e+00
3.498394035299437377e+00,0.000000000000000000e+00,0.000000000000000000e+00,-0.000000000000000000e+00
3.515798980748688685e+00,0.000000000000000000e+00,0.000000000000000000e+00,-0.000000000000000000e+00
3.533203926197939548e+00,0.000000000000000000e+00,0.000000000000000000e+00,-0.000000000000000000e+00
3.550608871647190412e+00,0.000000000000000000e+00,0.000000000000000000e+00,-0.000000000000000000e+00
3.568013817096441276e+00,0.000000000000000000e+00,0.000000000000000000e+00,-0.000000000000000000e+00
3.585418762545692140e+00,0.000000000000000000e+00,0.000000000000000000e+00,-0.000000000000000000e+00
3.602823707994943003e+00,0.000000000000000000e+00,0.000000000000000000e+00,-0.000000000000000000e+00
3.620228653444193867e+00,0.000000000000000000e+00,0.000000000000000000e+00,-0.000000000000000000e+00
3.637633598893445175e+00,0.000000000000000000e+00,0.000000000000000000e+00,-0.000000000000000000e+00
3.655038544342696039e+00,0.000000000000000000e+00,0.000000000000000000e+00,-0.000000000000000000e+00
3.672443489791946902e+00,0.000000000000000000e+00,0.000000000000000000e+00,-0.000000000000000000e+00
3.689848435241197766e+00,0.000000000000000000e+00,0.000000000000000000e+00,-0.000000000000000000e+00
3.707253380690448630e+00,0.000000000000000000e+00,0.000000000000000000e+00,-0.000000000000000000e+00
3.724658326139699493e+00,-1.185190266730890563e-01,7.261180520539457783e-02,-9.557833645232949316e-02
3.742063271588950801e+00,-1.195619160542997772e-01,7.233165617694108096e-02,-9.609163476388368763e-02
3.759468217038201665e+00,-1.206118390384628286e-01,7.205123643999869487e-02,-9.661294133523458394e-02
3.776873162487452529e+00,-1.216687284303850092e-01,7.177050489491346164e-02,-9.714223884439159018e-02
3.794278107936703393e+00,-1.227325154874557983e-01,7.148943012892311488e-02,-9.767951198903493393e-02
3.811683053385954256e+00,-1.238031299275417635e-01,7.120799072789990580e-02,-9.822474746855824890e-02
3.829087998835205120e+00,-1.248804999345659583e-01,7.092617561286690409e-02,-9.877793396924822167e-02
3.846492944284456428e+00,-1.259645521621327036e-01,7.064398440305648397e-02,-9.933906215306576026e-02
3.863897889733707292e+00,-1.270552117355593369e-01,7.036142780738569025e-02,-9.990812465052081870e-02
3.881302835182958155e+00,-1.281524022527101292e-01,7.007852804635603117e-02,-1.004851160581920755e-01
3.898707780632209019e+00,-1.292560457840721821e-01,6.979531930653636029e-02,-1.010700329415138432e-01
3.916112726081459883e+00,-1.303660628725208104e-01,6.951184822992717560e-02,-1.016628738434991464e-01
3.933517671530710746e+00,-1.314823725332901760e-01,6.922817444069367943e-02,-1.022636393001691568e-01
3.950922616979961610e+00,-1.326048922546908537e-01,6.894437111192971979e-02,-1.028723318635312578e-01
3.968327562429212918e+00,-1.337335380001677676e-01,6.866052557532303924e-02,-1.034889561330480101e-01
3.985732507878463782e+00,-1.348682242123666053e-01,6.837673997682564009e-02,-1.041135187966664433e-01
4.003137453327714645e+00,-1.360088638199140054e-01,6.809313198166629111e-02,-1.047460286825807052e-01
4.020542398776965953e+00,-1.371553682477168745e-01,6.780983553232441952e-02,-1.053864968230662225e-01
4.037947344226216373e+00,-1.383076474316454474e-01,6.752700166337606558e-02,-1.060349365318683512e-01
4.055352289675467681e+00,-1.394656098385821386e-01,6.724479937745245217e-02,-1.066913634968290475e-01
4.072757235124718100e+00,-1.406291624928916739e-01,6.696341658690349585e-02,-1.073557958896187853e-01
4.090162180573969408e+00,-1.417982110105280580e-01,6.668306112616372017e-02,-1.080282544947069601e-01
4.107567126023219828e+00,-1.429726596420710094e-01,6.640396184023304726e-02,-1.087087628599257838e-01
4.124972071472471136e+00,-1.441524113262005746e-01,6.612636975518593196e-02,-1.093973474713329508e-01
4.142377016921722443e+00,-1.453373677552264875e-01,6.585055933712156973e-02,-1.100940379553705661e-01
4.159781962370972863e+00,-1.465274294545169942e-01,6.557682984656629244e-02,-1.107988673117311362e-01
4.177186907820224171e+00,-1.477224958778692587e-01,6.530550679596709707e-02,-1.115118721807640823e-01
4.194591853269474591e+00,-1.489224655211088544e-01,6.503694351862493450e-02,-1.122330931497517448e-01
4.211996798718725898e+00,-1.501272360564734898e-01,6.477152285819630373e-02,-1.129625751029429276e-01
4.229401744167976318e+00,-1.513367044906466785e-01,6.450965898875551940e-02,-1.137003676208682978e-01
4.246806689617227626e+00,-1.525507673496275529e-01,6.425179937636139871e-02,-1.144465254351687833e-01
4.264211635066478934e+00,-1.537693208940518474e-01,6.399842689414833585e-02,-1.152011089460174414e-01
4.281616580515729353e+00,-1.549922613689566353e-01,6.375006210412217933e-02,-1.159641848101056610e-01
4.299021525964980661e+00,-1.562194852925166966e-01,6.350726572017104110e-02,-1.167358266082596518e-01
4.316426471414231081e+00,-1.574508897888026171e-01,6.327064126825163171e-02,-1.175161156029394804e-01
4.333831416863482389e+00,-1.586863729702361892e-01,6.304083796134664353e-02,-1.183051415972562470e-01
4.351236362312733696e+00,-1.599258343761112422e-01,6.281855380860583427e-02,-1.191030039087089959e-01
4.368641307761984116e+00,-1.611691754743397598e-01,6.260453898012417751e-02,-1.199098124726437620e-01
4.386046253211235424e+00,-1.624163002344424234e-01,6.239959945108152634e-02,-1.207256890924695014e-01
4.403451198660485844e+00,-1.636671157808172183e-01,6.220460095153647340e-02,-1.215507688560268362e-01
4.420856144109737151e+00,-1.649215331364111137e-01,6.202047325102950925e-02,-1.223852017401722836e-01
4.438261089558987571e+00,-1.661794680681893122e-01,6.184821481038849100e-02,-1.232291544287267976e-01
4.455666035008238879e+00,-1.674408420471762970e-01,6.168889783676623217e-02,-1.240828123724440069e-01
4.473070980457490187e+00,-1.687055833374569991e-01,6.154367378205635730e-02,-1.249463821237275230e-01
4.490475925906740606e+00,-1.699736282302548029e-01,6.141377932946980728e-02,-1.258200939834456245e-01
4.507880871355991914e+00,-1.712449224412151139e-01,6.130054291832293112e-02,-1.267042050025616318e-01
4.525285816805242334e+00,-1.725194226912260820e-01,6.120539186304824880e-02,-1.275990023874459811e-01
4.542690762254493642e+00,-1.737970984935817975e-01,6.112986012921779733e-02,-1.285048073648283329e-01
4.560095707703744061e+00,-1.750779341730591687e-01,6.107559683707649428e-02,-1.294219795705359166e-01
4.577500653152995369e+00,-1.763619311455375260e-01,6.104437557187377544e-02,-1.303509220356106613e-01
4.594905598602246677e+00,-1.776491104901917750e-01,6.103810459031099034e-02,-1.312920868543181740e-01
4.612310544051497097e+00,-1.789395158500139416e-01,6.105883802388459985e-02,-1.322459816311765679e-01
4.629715489500748404e+00,-1.802332167005649133e-01,6.110878819304748494e-02,-1.332131768187863607e-01
4.647120434949998824e+00,-1.815303120312906637e-01,6.119033916115493299e-02,-1.341943140751462871e-01
4.664525380399250132e+00,-1.828309344886334953e-01,6.130606167446552013e-02,-1.351901157888339700e-01
4.681930325848501440e+00,-1.841352550353219653e-01,6.145872965433674118e-02,-1.362013959432097077e-01
4.699335271297751859e+00,-1.854434881857341677e-01,6.165133843065224301e-02,-1.372290725173292425e-01
4.716740216747003167e+00,-1.867558978829032268e-01,6.188712493187789598e-02,-1.382741816520456357e-01
4.734145162196253587e+00,-1.880728040885058516e-01,6.216959007756553413e-02,-1.393378938456381888e-01
4.751550107645504895e+00,-1.893945901627846484e-01,6.250252365421211931e-02,-1.404215324850257574e-01
4.768955053094755314e+00,-1.907217111165157575e-01,6.289003199588909243e-02,-1.415265950672107698e-01
4.786359998544006622e+00,-1.920547028214303065e-01,6.333656883781302316e-02,-1.426547775222288261e-01
4.803764943993257930e+00,-1.933941922682473891e-01,6.384696976496458121e-02,-1.438080021148329668e-01
4.821169889442508349e+00,-1.947409089619182854e-01,6.442649074002523846e-02,-1.449884494790414924e-01
4.838574834891759657e+00,-1.960956975405569180e-01,6.508085126642645935e-02,-1.461985954292487899e-01
4.855979780341010077e+00,-1.974595316963372871e-01,6.581628282439740130e-02,-1.474412532959460120e-01
4.873384725790261385e+00,-1.988335294611834336e-01,6.663958331178382322e-02,-1.487196226555300427e-01
4.890789671239511804e+00,-2.002189698945633367e-01,6.755817832828055203e-02,-1.500373454648703531e-01
4.908194616688763112e+00,-2.016173111713160382e-01,6.858019026255395001e-02,-1.513985707751855925e-01
4.925599562138014420e+00,-2.030302100092282180e-01,6.971451627715742616e-02,-1.528080293896194042e-01
4.943004507587264840e+00,-2.044595422924906092e-01,7.097091643607528200e-02,-1.542711200481533262e-01
4.960409453036516148e+00,-2.059074246297494526e-01,7.236011338298092843e-02,-1.557940089757983149e-01
4.977814398485766567e+00,-2.073762364232017985e-01,7.389390515181035179e-02,-1.573837449188440762e-01
4.995219343935017875e+00,-2.088686418040915371e-01,7.558529286929481505e-02,-1.590483921225198660e-01
5.012624289384268295e+00,-2.103876104922105805e-01,7.744862528170885774e-02,-1.607971840739302605e-01
5.030029234833519602e+00,-2.119364362403595992e-01,7.949976218933833827e-02,-1.626407012471717817e-01
5.047434180282770910e+00,-2.135187510016715029e-01,8.175625897731579605e-02,-1.645910765407505583e-01
5.064839125732021330e+00,-2.151385322750403173e-01,8.423757445345947392e-02,-1.666622325839107743e-01
5.082244071181272638e+00,-2.168001002024170787e-01,8.696530408819749813e-02,-1.688701555940809729e-01
5.099649016630523057e+00,-2.185080998667704721e-01,8.996344042044432388e-02,-1.712332109673113389e-01
5.117053962079774365e+00,-2.202674628228391829e-01,9.325866173626239097e-02,-1.737725062360900297e-01
5.134458907529025673e+00,-2.220833401365780169e-01,9.688064899180270917e-02,-1.765123073694473688e-01
5.151863852978276093e+00,-2.239609970734707245e-01,1.008624291314150767e-01,-1.794805145200574770e-01
5.169268798427527400e+00,-2.259056570412432130e-01,1.052407401712774637e-01,-1.827092030955399515e-01
5.186673743876777820e+00,-2.279222794803900387e-01,1.100564093232840740e-01,-1.862352352333167538e-01
5.204078689326029128e+00,-2.300152531993979732e-01,1.153547295794892374e-01,-1.901009450869887707e-01
5.221483634775279548e+00,-2.321879833798288217e-01,1.211858120336564287e-01,-1.943548983644166617e-01
5.238888580224530855e+00,-2.344423475166011461e-01,1.276048801905187435e-01,-1.990527217181566610e-01
5.256293525673782163e+00,-2.367779935549224057e-01,1.346724580110899572e-01,-2.042579901159079503e-01
5.273698471123032583e+00,-2.391914534340691123e-01,1.424543849932152217e-01,-2.100431492414789325e-01
5.291103416572283891e+00,-2.416750485970706741e-01,1.510215690606103445e-01,-2.164904341191507264e-01
5.308508362021534310e+00,-2.442155727504638218e-01,1.604493619908371749e-01,-2.236927231992910658e-01
5.325913307470785618e+00,-2.467927537698468843e-01,1.708164143138732605e-01,-2.317542378070870379e-01
5.343318252920036038e+00,-2.493775240435449625e-01,1.822028407024729457e-01,-2.407909592472208815e-01
5.360723198369287346e+00,-2.519301695992365309e-01,1.946875091812469150e-01,-2.509305901074084799e-01
5.378128143818538653e+00,-2.543984850781965679e-01,2.083442677576695379e-01,-2.623118345658970174e-01
5.395533089267789073e+00,-2.567161337739626292e-01,2.232369538270726483e-01,-2.750827203512961616e-01
5.412938034717040381e+00,-2.588014950705425643e-01,2.394131114484045475e-01,-2.893976430835467628e-01
5.430342980166290801e+00,-2.605573646210051497e-01,2.568964862312525521e-01,-3.054127992993427299e-01
5.447747925615542108e+00,-2.618719356903274065e-01,2.756785889225937258e-01,-3.232797118256185986e-01
5.465152871064793416e+00,-2.626215041527067973e-01,2.957099147805823947e-01,-3.431366694976539788e-01
5.482557816514043836e+00,-2.626752692506975628e-01,3.168917494617905506e-01,-3.650981300645915195e-01
5.499962761963295144e+00,-2.619024140908871590e-01,3.390698214814748535e-01,-3.892424841319834794e-01
5.517367707412545563e+00,-2.601813276003820952e-01,3.620312771668288132e-01,-4.155990318261471583e-01
5.534772652861796871e+00,-2.574103925757147970e-01,3.855064338808280588e-01,-4.441355173276019253e-01
5.552177598311047291e+00,-2.535192827391128390e-01,4.091764012349813906e-01,-4.747479798415159546e-01
5.569582543760298599e+00,-2.484793068743585132e-01,4.326869052412704031e-01,-5.072548550893128949e-01
5.586987489209549906e+00,-2.423111575971116372e-01,4.556675850736978117e-01,-5.413970495858509979e-01
5.604392434658800326e+00,-2.350885876988346723e-01,4.777548762776202551e-01,-5.768450388483533642e-01
5.621797380108051634e+00,-2.269370823215637045e-01,4.986156674197635419e-01,-6.132129785469991878e-01
5.639202325557302053e+00,-2.180274272839155814e-01,5.179685307712542652e-01,-6.500785893542417870e-01
5.656607271006553361e+00,-2.085649848488707603e-01,5.355996521048309589e-01,-6.870065066743604731e-01
5.674012216455803781e+00,-1.987762259989673819e-01,5.513715605799276442e-01,-7.235721827738247347e-01
5.691417161905055089e+00,-1.888944347600613471e-01,5.652241085891425154e-01,-7.593834567694014437e-01
5.708822107354306397e+00,-1.791464267958449152e-01,5.771684877819779347e-01,-7.940975268344554472e-01
5.726227052803556816e+00,-1.697416870007008027e-01,5.872760518587074596e-01,-8.274320500757812447e-01
5.743631998252808124e+00,-1.608647007258498518e-01,5.956641710973908932e-01,-8.591701623373197982e-01
5.761036943702058544e+00,-1.526706200504335809e-01,6.024812798630986288e-01,-8.891600935616026380e-01
5.778441889151309852e+00,-1.452839112765745844e-01,6.078928466705560973e-01,-9.173106073979907515e-01
5.795846834600561159e+00,-1.387993359966964990e-01,6.120693973791885290e-01,-9.435836952629843566e-01
5.813251780049811579e+00,-1.332845187653644847e-01,6.151771308032574215e-01,-9.679858751912541193e-01
5.830656725499062887e+00,-1.287834002285570545e-01,6.173711922967654031e-01,-9.905591942628475532e-01
5.848061670948313306e+00,-1.253200034950466002e-01,6.187913562471686335e-01,-1.011372715643340747e+00
5.865466616397564614e+00,-1.229020996435919999e-01,6.195597044250420460e-01,-1.030514964463052463e+00
5.882871561846815034e+00,-1.215245088098979576e-01,6.197798393508401338e-01,-1.048087554022135937e+00
5.900276507296066342e+00,-1.211718970561617287e-01,6.195371993605368610e-01,-1.064200030066173142e+00
5.917681452745317650e+00,-1.218210202914316725e-01,6.189001091422303702e-01,-1.078965852761241351e+00
5.935086398194568069e+00,-1.234424271057962819e-01,6.179212801934106380e-01,-1.092499371149930676e+00
5.952491343643819377e+00,-1.260016684988551350e-01,6.166395537748058375e-01,-1.104913618468887027e+00
5.969896289093069797e+00,-1.294600809833858224e-01,6.150817461905297989e-01,-1.116318755316887845e+00
5.987301234542321104e+00,-1.337752165809125426e-01,6.132645095782810474e-01,-1.126821000699519626e+00
6.004706179991571524e+00,-1.389009936064625195e-01,6.111961609172756882e-01,-1.136521911024091613e+00
6.022111125440822832e+00,-1.447876392459211958e-01,6.088784592314996358e-01,-1.145517889457432492e+00
6.039516070890074140e+00,-1.513814908872206932e-01,6.063083280633245753e-01,-1.153899830030658880e+00
6.056921016339324559e+00,-1.586247191037272741e-01,6.034795292633495789e-01,-1.161752821236642808e+00
6.074325961788575867e+00,-1.664550314835971379e-01,6.003842967676437103e-01,-1.169155852258499051e+00
6.091730907237826287e+00,-1.748054129948336255e-01,5.970149367921449013e-01,-1.176181481506848314e+00
6.109135852687077595e+00,-1.836039547532958838e-01,5.933653950064564642e-01,-1.182895442126414176e+00
6.126540798136328903e+00,-1.927738181918987881e-01,5.894327828650945955e-01,-1.189356172829816760e+00
6.143945743585579322e+00,-2.022333749242236633e-01,5.852188454584806854e-01,-1.195614274939406085e+00
6.161350689034830630e+00,-2.118965533561195935e-01,5.807313431377946200e-01,-1.201711907741916052e+00
6.178755634484081050e+00,-2.216734108774976175e-01,5.759853099863245784e-01,-1.207682143807755404e+00
6.196160579933332357e+00,-2.314709352212461213e-01,5.710041452139503759e-01,-1.213548313205929041e+00
6.213565525382582777e+00,-2.411940607932112624e-01,5.658204899270898869e-01,-1.219323369853339223e+00
6.230970470831834085e+00,-2.507468665284820486e-01,5.604768424151530537e-01,-1.225009313907914787e+00
6.248375416281085393e+00,-2.600339027310197282e-01,5.550258705883456267e-01,-1.230596700702779378e+00
6.265780361730335812e+00,-2.689615774069843979e-01,5.495303903532726686e-01,-1.236064259177164892e+00
6.283185307179586232e+00,-2.774395199189763628e-01,5.440629926152400486e-01,-1.241378631577925384e+00
