0.000000000000000000e+00,0.000000000000000000e+00,0.000000000000000000e+00,-0.000000000000000000e+00
1.740494544925093312e-02,0.000000000000000000e+00,0.000000000000000000e+00,-0.000000000000000000e+00
3.480989089850186624e-02,0.000000000000000000e+00,0.000000000000000000e+00,-0.000000000000000000e+00
5.221483634775279936e-02,0.000000000000000000e+00,0.000000000000000000e+00,-0.000000000000000000e+00
6.961978179700373248e-02,0.000000000000000000e+00,0.000000000000000000e+00,-0.000000000000000000e+00
8.702472724625466560e-02,0.000000000000000000e+00,0.000000000000000000e+00,-0.000000000000000000e+00
1.044296726955055987e-01,0.000000000000000000e+00,0.000000000000000000e+00,-0.000000000000000000e+00
1.218346181447565318e-01,0.000000000000000000e+00,0.000000000000000000e+00,-0.000000000000000000e+00
1.392395635940074650e-01,0.000000000000000000e+00,0.000000000000000000e+00,-0.000000000000000000e+00
1.566445090432583842e-01,0.000000000000000000e+00,0.000000000000000000e+00,-0.000000000000000000e+00
1.740494544925093312e-01,0.000000000000000000e+00,0.000000000000000000e+00,-0.000000000000000000e+00
1.914543999417602782e-01,0.000000000000000000e+00,0.000000000000000000e+00,-0.000000000000000000e+00
2.088593453910111974e-01,0.000000000000000000e+00,0.000000000000000000e+00,-0.000000000000000000e+00
2.262642908402621167e-01,0.000000000000000000e+00,0.000000000000000000e+00,-0.000000000000000000e+00
2.436692362895130637e-01,-1.004138902517322934e-01,9.924308186547428634e-02,-9.708797921676595721e-02
2.610741817387640107e-01,-1.038280135964203960e-01,1.016389785497467946e-01,-9.994897087610442321e-02
2.784791271880149299e-01,-1.071335278074257435e-01,1.040352040877543655e-01,-1.027861738376312645e-01
2.958840726372658492e-01,-1.103209927643929444e-01,1.064407419175958242e-01,-1.055971918814690436e-01
3.132890180865167684e-01,-1.133808622873501010e-01,1.088646162672344125e-01,-1.083796018960619667e-01
3.306939635357677432e-01,-1.163035494777156093e-01,1.113159495549287809e-01,-1.111310673198187826e-01
3.480989089850186624e-01,-1.190794858552459839e-01,1.138040066541063239e-01,-1.138494499498675094e-01
3.655038544342695817e-01,-1.216991762817435652e-01,1.163382295044002313e-01,-1.165329225364183097e-01
3.829087998835205564e-01,-1.241532510151147906e-01,1.189282646132646531e-01,-1.191800838410362190e-01
4.003137453327714756e-01,-1.264325157287142509e-01,1.215839853179729174e-01,-1.217900772445297125e-01
4.177186907820223949e-01,-1.285279998971000648e-01,1.243155101612099384e-01,-1.243627134716157601e-01
4.351236362312733141e-01,-1.304310035492417252e-01,1.271332183013647310e-01,-1.268985975040086700e-01
4.525285816805242334e-01,-1.321331419986025713e-01,1.300477624755295991e-01,-1.293992592443307943e-01
4.699335271297752081e-01,-1.336263877634822073e-01,1.330700796138137021e-01,-1.318672869428964278e-01
4.873384725790261274e-01,-1.349031084895057353e-01,1.362113987287739691e-01,-1.343064617880012079e-01
5.047434180282770466e-01,-1.359560992906423682e-01,1.394832451390291550e-01,-1.367218913745167630e-01
5.221483634775280214e-01,-1.367786075613989516e-01,1.428974394022628769e-01,-1.391201389992308135e-01
5.395533089267788851e-01,-1.373643480230960778e-01,1.464660885090238729e-01,-1.415093448870737569e-01
5.569582543760298599e-01,-1.377075056117751661e-01,1.502015659178161100e-01,-1.438993345435516380e-01
5.743631998252808346e-01,-1.378027238729624682e-01,1.541164759082616353e-01,-1.463017084822445524e-01
5.917681452745316983e-01,-1.376450768936688662e-01,1.582235965382977338e-01,-1.487299066353911792e-01
6.091730907237826731e-01,-1.372300235773706856e-01,1.625357943017684548e-01,-1.511992398824314188e-01
6.265780361730335368e-01,-1.365533443511839362e-01,1.670659025361061201e-01,-1.537268804086880936e-01
6.439829816222845116e-01,-1.356110622579388969e-01,1.718265549286410176e-01,-1.563318021377149702e-01
6.613879270715354863e-01,-1.343993528467674337e-01,1.768299653773352520e-01,-1.590346623881997434e-01
6.787928725207863501e-01,-1.329144502628141211e-01,1.820876462877230872e-01,-1.618576163246260580e-01
6.961978179700373248e-01,-1.311525602546486646e-01,1.876100594585196346e-01,-1.648240568380359983e-01
7.136027634192882996e-01,-1.291097941210551381e-01,1.934061973122520595e-01,-1.679582743358152552e-01
7.310077088685391633e-01,-1.267821404036989785e-01,1.994830975403722728e-01,-1.712850336340254187e-01
7.484126543177901381e-01,-1.241654927642533990e-01,2.058453012286582395e-01,-1.748290687766736740e-01
7.658175997670411128e-01,-1.212557522697315510e-01,2.124942728917965928e-01,-1.786145011213237654e-01
7.832225452162919765e-01,-1.180490196135996206e-01,2.194278099056109488e-01,-1.826641912983518190e-01
8.006274906655429513e-01,-1.145418872052020726e-01,2.266394775479272650e-01,-1.869990414229163456e-01
8.180324361147938150e-01,-1.107318325340553578e-01,2.341181129195351873e-01,-1.916372698389153251e-01
8.354373815640447898e-01,-1.066177032484693227e-01,2.418474449640315160e-01,-1.965936862060559953e-01
8.528423270132957645e-01,-1.022002720467136277e-01,2.498058773127922461e-01,-2.018789993118705883e-01
8.702472724625466283e-01,-9.748282733936106115e-02,2.579664748421429676e-01,-2.074991929602273411e-01
8.876522179117976030e-01,-9.247175557956253955e-02,2.662971834335887134e-01,-2.134550060441937624e-01
9.050571633610484668e-01,-8.717706502356896425e-02,2.747612961406596943e-01,-2.197415509644120024e-01
9.224621088102994415e-01,-8.161279991894727914e-02,2.833181593462779091e-01,-2.263480996416633306e-01
9.398670542595504163e-01,-7.579729941346824429e-02,2.919240918159606846e-01,-2.332580585512486759e-01
9.572719997088012800e-01,-6.975326656180072527e-02,3.005334704473759944e-01,-2.404491439108442097e-01
9.746769451580522547e-01,-6.350762843366046517e-02,3.090999215171127412e-01,-2.478937561900464992e-01
9.920818906073032295e-01,-5.709118647750253267e-02,3.175775472993740967e-01,-2.555595405848165580e-01
1.009486836056554093e+00,-5.053807454943260585e-02,3.259221161318198723e-01,-2.634101082747878353e-01
1.026891781505804957e+00,-4.388505800858080730e-02,3.340921493077210203e-01,-2.714058833854927633e-01
1.044296726955056043e+00,-3.717071910677096497e-02,3.420498495410179696e-01,-2.795050336165938454e-01
1.061701672404306906e+00,-3.043458042174700118e-02,3.497618313772415943e-01,-2.876644390972851739e-01
1.079106617853557770e+00,-2.371621903368965542e-02,3.571996316113495995e-01,-2.958406543542467793e-01
1.096511563302808856e+00,-1.705442006478602793e-02,3.643399953298960270e-01,-3.039908220278554341e-01
1.113916508752059720e+00,-1.048641023101317196e-02,3.711649487665538150e-01,-3.120735034726547230e-01
1.131321454201310583e+00,-4.047201654464003227e-03,3.776616824522377458e-01,-3.200493997114481348e-01
1.148726399650561669e+00,2.230935145413326208e-03,3.838222764984312030e-01,-3.278819453798322292e-01
1.166131345099812533e+00,8.318861106653811094e-03,3.896433042167429250e-01,-3.355377673650101755e-01
1.183536290549063397e+00,1.419082291965479553e-02,3.951253510604397778e-01,-3.429870080481561834e-01
1.200941235998314482e+00,1.982458094546576607e-02,4.002724837875156760e-01,-3.502035198770596658e-01
1.218346181447565346e+00,2.520142530947110104e-02,4.050917006352959815e-01,-3.571649431463865265e-01
1.235751126896816210e+00,3.030609792555154572e-02,4.095923880016108520e-01,-3.638526822905835956e-01
1.253156072346067074e+00,3.512663950547716130e-02,4.137858033799008961e-01,-3.702517978175072222e-01
1.270561017795318159e+00,3.965418038223536557e-02,4.176845986686881784e-01,-3.763508314634025909e-01
1.287965963244569023e+00,4.388269264015449977e-02,4.213023928683503616e-01,-3.821415815259773807e-01
1.305370908693819887e+00,4.780871899594377888e-02,4.246533988252141345e-01,-3.876188439388522644e-01
1.322775854143070973e+00,5.143109145526922332e-02,4.277521051840043054e-01,-3.927801327736095138e-01
1.340180799592321836e+00,5.475065024954046955e-02,4.306130120622298496e-01,-3.976253917388992143e-01
1.357585745041572700e+00,5.776997113295537917e-02,4.332504170937857002e-01,-4.021567060821124584e-01
1.374990690490823786e+00,6.049310691799340833e-02,4.356782472949378149e-01,-4.063780222280022336e-01
1.392395635940074650e+00,6.292534721924451790e-02,4.379099315591455377e-01,-4.102948806025845108e-01
1.409800581389325513e+00,6.507299878769806645e-02,4.399583083635235092e-01,-4.139141654418787564e-01
1.427205526838576599e+00,6.694318754650008252e-02,4.418355633553840423e-01,-4.172438739944996922e-01
1.444610472287827463e+00,6.854368246074443727e-02,4.435531917846938788e-01,-4.202929063932600018e-01
1.462015417737078327e+00,6.988274065294811099e-02,4.451219811777740176e-01,-4.230708765770480051e-01
1.479420363186329412e+00,7.096897267258844844e-02,4.465520101474035330e-01,-4.255879439648086460e-01
1.496825308635580276e+00,7.181122650241304750e-02,4.478526597586849345e-01,-4.278546650886826397e-01
1.514230254084831140e+00,7.241848869878521333e-02,4.490326343863636493e-01,-4.298818640527167778e-01
1.531635199534082226e+00,7.279980098495050789e-02,4.500999894863395023e-01,-4.316805204677255370e-01
1.549040144983333089e+00,7.296419061658651617e-02,4.510621641491626699e-01,-4.332616733954829380e-01
1.566445090432583953e+00,7.292061289508935951e-02,4.519260166998459449e-01,-4.346363397931807260e-01
1.583850035881834817e+00,7.267790429715541289e-02,4.526978619544916871e-01,-4.358154459625652732e-01
1.601254981331085903e+00,7.224474480489015416e-02,4.533835090411534874e-01,-4.368097705611603820e-01
1.618659926780336766e+00,7.162962814800166722e-02,4.539882989431536231e-01,-4.376298978126380579e-01
1.636064872229587630e+00,7.084083880060081106e-02,4.545171411319566812e-01,-4.382861796495720608e-01
1.653469817678838716e+00,6.988643470410103864e-02,4.549745488284068218e-01,-4.387887056267644192e-01
1.670874763128089580e+00,6.877423481086067381e-02,4.553646725704381670e-01,-4.391472795512860183e-01
1.688279708577340443e+00,6.751181065815421711e-02,4.556913318769565957e-01,-4.393714018822240663e-01
1.705684654026591529e+00,6.610648128746571262e-02,4.559580448857303292e-01,-4.394702570559442245e-01
1.723089599475842393e+00,6.456531091938221001e-02,4.561680559116818579e-01,-4.394527049895714521e-01
1.740494544925093257e+00,6.289510887951063611e-02,4.563243609244271859e-01,-4.393272761053262365e-01
1.757899490374344342e+00,6.110243134619165045e-02,4.564297309831142346e-01,-4.391021693005984217e-01
1.775304435823595206e+00,5.919358455690007514e-02,4.564867336952251886e-01,-4.387852523632440604e-01
1.792709381272846070e+00,5.717462916782461990e-02,4.564977527860155093e-01,-4.383840643984516228e-01
1.810114326722096934e+00,5.505138551099476169e-02,4.564650058786214881e-01,-4.379058198932405110e-01
1.827519272171348019e+00,5.282943953623010780e-02,4.563905605928582077e-01,-4.373574140973965907e-01
1.844924217620598883e+00,5.051414926194729843e-02,4.562763490747216433e-01,-4.367454294461706188e-01
1.862329163069849747e+00,4.811065159016095216e-02,4.561241810694809384e-01,-4.360761427907853260e-01
1.879734108519100833e+00,4.562386936757780592e-02,4.559357556498133679e-01,-4.353555332383018950e-01
1.897139053968351696e+00,4.305851859709280971e-02,4.557126717073449185e-01,-4.345892904332574469e-01
1.914543999417602560e+00,4.041911572284840465e-02,4.554564373116846698e-01,-4.337828231401836820e-01
1.931948944866853646e+00,3.770998492778427497e-02,4.551684780359814275e-01,-4.329412680091448418e-01
1.949353890316104509e+00,3.493526539573630491e-02,4.548501443424945445e-01,-4.320694984262334337e-01
1.966758835765355373e+00,3.209891850103233080e-02,4.545027181158711738e-01,-4.311721333679162105e-01
1.984163781214606459e+00,2.920473489751062093e-02,4.541274184259728175e-01,-4.302535461926522142e-01
2.001568726663857323e+00,2.625634148623681718e-02,4.537254065962533223e-01,-4.293178733155130766e-01
2.018973672113108186e+00,2.325720824719483201e-02,4.532977906480491481e-01,-4.283690227220664504e-01
2.036378617562359050e+00,2.021065492506617448e-02,4.528456291856637894e-01,-4.274106822866279298e-01
2.053783563011609914e+00,1.711985756309472931e-02,4.523699347819487571e-01,-4.264463278675129643e-01
2.071188508460861222e+00,1.398785488210992425e-02,4.518716769191362115e-01,-4.254792311581879760e-01
2.088593453910112085e+00,1.081755450419456636e-02,4.513517845350847324e-01,-4.245124672785289821e-01
2.105998399359362949e+00,7.611739022334048851e-03,4.508111482207524112e-01,-4.235489220947748490e-01
2.123403344808613813e+00,4.373071918791137866e-03,4.502506221106860607e-01,-4.225912992604275442e-01
2.140808290257864677e+00,1.104103335972702292e-03,4.496710255045825999e-01,-4.216421269733602317e-01
2.158213235707115540e+00,-2.192724295717935010e-03,4.490731442545086716e-01,-4.207037644468817339e-01
2.175618181156366848e+00,-5.515070768070816538e-03,4.484577319491598324e-01,-4.197784080944996221e-01
2.193023126605617712e+00,-8.860692738046746855e-03,4.478255109235876885e-01,-4.188680974297612769e-01
2.210428072054868576e+00,-1.222743849816015221e-02,4.471771731201079070e-01,-4.179747206838516083e-01
2.227833017504119439e+00,-1.561324286887109773e-02,4.465133808235742241e-01,-4.171000201446169453e-01
2.245237962953370303e+00,-1.901612220768317957e-02,4.458347672919164562e-01,-4.162455972215101108e-01
2.262642908402621167e+00,-2.243416952978517787e-02,4.451419373006985092e-01,-4.154129172415004789e-01
2.280047853851872031e+00,-2.586554973527750712e-02,4.444354676184943398e-01,-4.146033139814354618e-01
2.297452799301123338e+00,-2.930849493825405522e-02,4.437159074280937476e-01,-4.138179939426407383e-01
2.314857744750374202e+00,-3.276129989325467923e-02,4.429837787068666710e-01,-4.130580403736973105e-01
2.332262690199625066e+00,-3.622231751486281598e-02,4.422395765780988142e-01,-4.123244170474409387e-01
2.349667635648875930e+00,-3.968995448646864960e-02,4.414837696436885173e-01,-4.116179717982206832e-01
2.367072581098126793e+00,-4.316266695446721591e-02,4.407168003072985396e-01,-4.109394398254162528e-01
2.384477526547377657e+00,-4.663895630438376350e-02,4.399390850958363464e-01,-4.102894467690944569e-01
2.401882471996628965e+00,-5.011736501562963353e-02,4.391510149860200496e-01,-4.096685115635382846e-01
2.419287417445879829e+00,-5.359647259177706402e-02,4.383529557417635281e-01,-4.090770490742333121e-01
2.436692362895130692e+00,-5.707489156339609626e-02,4.375452482671247645e-01,-4.085153725236590483e-01
2.454097308344381556e+00,-6.055126356063427612e-02,4.367282089786894139e-01,-4.079836957110447582e-01
2.471502253793632420e+00,-6.402425545281612007e-02,4.359021302004004728e-01,-4.074821350309926205e-01
2.488907199242883284e+00,-6.749255555241370774e-02,4.350672805830859136e-01,-4.070107112956533046e-01
2.506312144692134147e+00,-7.095486988078271440e-02,4.342239055501884715e-01,-4.065693513648794277e-01
2.523717090141385455e+00,-7.440991849306749506e-02,4.333722277705140957e-01,-4.061578895885234464e-01
2.541122035590636319e+00,-7.785643185965641921e-02,4.325124476581835298e-01,-4.057760690648333224e-01
2.558526981039887183e+00,-8.129314730153117119e-02,4.316447438993407659e-01,-4.054235427186148044e-01
2.575931926489138046e+00,-8.471880547676079176e-02,4.307692740046047408e-01,-4.050998742026159505e-01
2.593336871938388910e+00,-8.813214691529831779e-02,4.298861748857001897e-01,-4.048045386253516509e-01
2.610741817387639774e+00,-9.153190859909916821e-02,4.289955634541659513e-01,-4.045369231083542072e-01
2.628146762836891082e+00,-9.491682058442377223e-02,4.280975372395517953e-01,-4.042963271756486732e-01
2.645551708286141945e+00,-9.828560266300470638e-02,4.271921750240031956e-01,-4.040819629780183497e-01
2.662956653735392809e+00,-1.016369610585533684e-01,4.262795374896811706e-01,-4.038929553544863826e-01
2.680361599184643673e+00,-1.049695851548575476e-01,4.253596678749835269e-01,-4.037283417332427904e-01
2.697766544633894537e+00,-1.082821442514710353e-01,4.244325926350911993e-01,-4.035870718741283447e-01
2.715171490083145400e+00,-1.115732843427387072e-01,4.234983221018864263e-01,-4.034680074546431738e-01
2.732576435532396708e+00,-1.148416249156233998e-01,4.225568511378635650e-01,-4.033699215013870631e-01
2.749981380981647572e+00,-1.180857557615056508e-01,4.216081597781680679e-01,-4.032914976687523301e-01
2.767386326430898436e+00,-1.213042337968355255e-01,4.206522138544491751e-01,-4.032313293666848208e-01
2.784791271880149299e+00,-1.244955798872005998e-01,4.196889655937142694e-01,-4.031879187393204167e-01
2.802196217329400163e+00,-1.276582756690702314e-01,4.187183541848952251e-01,-4.031596754963991946e-01
2.819601162778651027e+00,-1.307907603631610349e-01,4.177403063052978482e-01,-4.031449155994339395e-01
2.837006108227901890e+00,-1.338914275730658243e-01,4.167547365985732610e-01,-4.031418598048179258e-01
2.854411053677153198e+00,-1.369586220624870454e-01,4.157615480952666642e-01,-4.031486320662701073e-01
2.871815999126404062e+00,-1.399906365041381495e-01,4.147606325663945603e-01,-4.031632577993615740e-01
2.889220944575654926e+00,-1.429857081931086848e-01,4.137518707998226741e-01,-4.031836620112370650e-01
2.906625890024905789e+00,-1.459420157172646448e-01,4.127351327885551702e-01,-4.032076672992094823e-01
2.924030835474156653e+00,-1.488576755770506244e-01,4.117102778192429091e-01,-4.032329917224687366e-01
2.941435780923407517e+00,-1.517307387469242763e-01,4.106771544484428826e-01,-4.032572465519560501e-01
2.958840726372658825e+00,-1.545591871705555842e-01,4.096356003532579115e-01,-4.032779339043298661e-01
2.976245671821909689e+00,-1.573409301819189143e-01,4.085854420420484967e-01,-4.032924442670492438e-01
2.993650617271160552e+00,-1.600738008444729521e-01,4.075264944098696551e-01,-4.032980539228547268e-01
3.011055562720411416e+00,-1.627555522008207189e-01,4.064585601221896716e-01,-4.032919222834492334e-01
3.028460508169662280e+00,-1.653838534255508974e-01,4.053814288092476570e-01,-4.032710891439187373e-01
3.045865453618913143e+00,-1.679562858744410025e-01,4.042948760521087870e-01,-4.032324718714619394e-01
3.063270399068164451e+00,-1.704703390238685445e-01,4.031986621401104087e-01,-4.031728625443758984e-01
3.080675344517415315e+00,-1.729234062951673367e-01,4.020925305778975667e-01,-4.030889250599644091e-01
3.098080289966666179e+00,-1.753127807598225396e-01,4.009762063186846359e-01,-4.029771922331975009e-01
3.115485235415917042e+00,-1.776356507228634141e-01,3.998493936986772801e-01,-4.028340629115235716e-01
3.132890180865167906e+00,-1.798890951836699670e-01,3.987117740458639426e-01,-4.026557991354453026e-01
3.150295126314418770e+00,-1.820700791756749426e-01,3.975630029344973670e-01,-4.024385233791406558e-01
3.167700071763669634e+00,-1.841754489892472868e-01,3.964027070547017639e-01,-4.021782159108653887e-01
3.185105017212920941e+00,-1.862019272854271157e-01,3.952304806646476099e-01,-4.018707123189841357e-01
3.202509962662171805e+00,-1.881461081122829671e-01,3.940458815907732504e-01,-4.015117012564936583e-01
3.219914908111422669e+00,-1.900044518405547278e-01,3.928484267395244700e-01,-4.010967224647614682e-01
3.237319853560673533e+00,-1.917732800411129090e-01,3.916375870821940941e-01,-4.006211651461709655e-01
3.254724799009924396e+00,-1.934487703336975339e-01,3.904127820726455700e-01,-4.000802667654000389e-01
3.272129744459175260e+00,-1.950269512446115572e-01,3.891733734560993696e-01,-3.994691123703458802e-01
3.289534689908426568e+00,-1.965036971207080319e-01,3.879186584259051163e-01,-3.987826345363841285e-01
3.306939635357677432e+00,-1.978747231583246891e-01,3.866478620843447067e-01,-3.980156140517382424e-01
3.324344580806928295e+00,-1.991355806190565347e-01,3.853601291632438586e-01,-3.971626814774384950e-01
3.341749526256179159e+00,-2.002816523196359055e-01,3.840545149606909847e-01,-3.962183197327344697e-01
3.359154471705430023e+00,-2.013081485010247418e-01,3.827299754516638730e-01,-3.951768678759607911e-01
3.376559417154680887e+00,-2.022101032024062051e-01,3.813853565331843942e-01,-3.940325262718474830e-01
3.393964362603931750e+00,-2.029823712894242016e-01,3.800193823690878325e-01,-3.927793633591502021e-01
3.411369308053183058e+00,-2.036196263130893858e-01,3.786306428059850737e-01,-3.914113242571956586e-01
3.428774253502433922e+00,-2.041163594065979470e-01,3.772175798410510872e-01,-3.899222414764738631e-01
3.446179198951684786e+00,-2.044668794622351016e-01,3.757784731344481211e-01,-3.883058480266052270e-01
3.463584144400935649e+00,-2.046653148698290292e-01,3.743114245751372748e-01,-3.865557932445318756e-01
3.480989089850186513e+00,-2.047056171421985094e-01,3.728143419293953875e-01,-3.846656616963499697e-01
3.498394035299437377e+00,-2.045815668017925970e-01,3.712849216273512720e-01,-3.826289955370890672e-01
3.515798980748688685e+00,-2.042867819563655152e-01,3.697206307754127286e-01,-3.804393207433037771e-01
3.533203926197939548e+00,-2.038147300498510117e-01,3.681186885226043759e-01,-3.780901776623607491e-01
3.550608871647190412e+00,-2.031587433372533391e-01,3.664760469579553814e-01,-3.755751563485239530e-01
3.568013817096441276e+00,-2.023120386985532981e-01,3.647893717754240317e-01,-3.728879371774478368e-01
3.585418762545692140e+00,-2.012677424751768418e-01,3.630550230139350520e-01,-3.700223372453569914e-01
3.602823707994943003e+00,-2.000189210816541718e-01,3.612690362643208308e-01,-3.669723630641508194e-01
3.620228653444193867e+00,-1.985586182122256738e-01,3.594271048337427943e-01,-3.637322700556735455e-01
3.637633598893445175e+00,-1.968798995238006666e-01,3.575245634726828547e-01,-3.602966293232813255e-01
3.655038544342696039e+00,-1.949759057283670105e-01,3.555563744007909643e-01,-3.566604021320803897e-01
3.672443489791946902e+00,-1.928399150636970760e-01,3.535171165160673201e-01,-3.528190224552396059e-01
3.689848435241197766e+00,-1.904654161236260523e-01,3.514009788366551090e-01,-3.487684878366501540e-01
3.707253380690448630e+00,-1.878461920090920834e-01,3.492017594043637652e-01,-3.445054586732388402e-01
3.724658326139699493e+00,-1.849764166974966206e-01,3.469128710707943264e-01,-3.400273658264458265e-01
3.742063271588950801e+00,-1.818507644077436702e-01,3.445273557855385027e-01,-3.353325262247959238e-01
3.759468217038201665e+00,-1.784645325467555665e-01,3.420379092035690238e-01,-3.304202658115007463e-01
3.776873162487452529e+00,-1.748137785438523273e-01,3.394369176147504219e-01,-3.252910488172023884e-01
3.794278107936703393e+00,-1.708954704947953096e-01,3.367165093575631429e-01,-3.199466118948377513e-01
3.811683053385954256e+00,-1.667076510300684322e-01,3.338686229924840987e-01,-3.143901011408168911e-01
3.829087998835205120e+00,-1.622496131762599381e-01,3.308850945538926447e-01,-3.086262094483198104e-01
3.846492944284456428e+00,-1.575220861828530439e-01,3.277577661438492163e-01,-3.026613110046829647e-01
3.863897889733707292e+00,-1.525274283333759029e-01,3.244786179426686346e-01,-2.965035890731284041e-01
3.881302835182958155e+00,-1.472698226535932575e-01,3.210399253522576712e-01,-2.901631525165244696e-01
3.898707780632209019e+00,-1.417554701879976120e-01,3.174344424189015634e-01,-2.836521358647902114e-01
3.916112726081459883e+00,-1.359927741756096764e-01,3.136556118637233159e-01,-2.769847771467645048e-01
3.933517671530710746e+00,-1.299925070764051116e-01,3.096978009477500682e-01,-2.701774672617265338e-01
3.950922616979961610e+00,-1.237679510668896476e-01,3.055565609915470437e-01,-2.632487644245143366e-01
3.968327562429212918e+00,-1.173350014535347180e-01,3.012289066520895675e-01,-2.562193672569134106e-01
3.985732507878463782e+00,-1.107122215912504093e-01,2.967136090532808135e-01,-2.491120404922747555e-01
4.003137453327714645e+00,-1.039208375116500299e-01,2.920114946277820311e-01,-2.419514880785057775e-01
4.020542398776965953e+00,-9.698466074932653169e-02,2.871257391556943372e-01,-2.347641697569819441e-01
4.037947344226216373e+00,-8.992992899080808067e-02,2.820621441277468278e-01,-2.275780589823384048e-01
4.055352289675467681e+00,-8.278505632544240489e-02,2.768293804146266246e-01,-2.204223423099781476e-01
4.072757235124718100e+00,-7.558028816449355314e-02,2.714391825328020813e-01,-2.133270630421267855e-01
4.090162180573969408e+00,-6.834726034529883809e-02,2.659064758355692004e-01,-2.063227148590235094e-01
4.107567126023219828e+00,-6.111846746620592380e-02,2.602494190111175332e-01,-1.994397941818251696e-01
4.124972071472471136e+00,-5.392665187609921307e-02,2.544893455998847309e-01,-1.927083228822657202e-01
4.142377016921722443e+00,-4.680413158131032508e-02,2.486505910527845309e-01,-1.861573554071655479e-01
4.159781962370972863e+00,-3.978209208880819497e-02,2.427601962368557964e-01,-1.798144861606995049e-01
4.177186907820224171e+00,-3.288987320775866446e-02,2.368474842071749409e-01,-1.737053738586276375e-01
4.194591853269474591e+00,-2.615428634255794610e-02,2.309435142793857254e-01,-1.678532993869512602e-01
4.211996798718725898e+00,-1.959900010427044134e-02,2.250804255433105638e-01,-1.622787724217871486e-01
4.229401744167976318e+00,-1.324403153526298310e-02,2.192906903652331319e-01,-1.569991997849559673e-01
4.246806689617227626e+00,-7.105376498196600346e-03,2.136063064068466910e-01,-1.520286254352571642e-01
4.264211635066478934e+00,-1.194805758476451957e-03,2.080579624424870322e-01,-1.473775484455842610e-01
4.281616580515729353e+00,4.480156696451432878e-03,2.026742179958905821e-01,-1.430528216618915105e-01
4.299021525964980661e+00,9.916068793455398711e-03,1.974807388654127582e-01,-1.390576303434058469e-01
4.316426471414231081e+00,1.511322807462910089e-02,1.924996294882792003e-01,-1.353915472308115930e-01
4.333831416863482389e+00,2.007517434415911212e-02,1.877488986208402655e-01,-1.320506583389239874e-01
4.351236362312733696e+00,2.480807134651516130e-02,1.832420871366031434e-01,-1.290277523300817908e-01
4.368641307761984116e+00,2.932001036169602087e-02,1.789880763876063319e-01,-1.263125654653927121e-01
4.386046253211235424e+00,3.362028345343292396e-02,1.749910834073537258e-01,-1.238920736402941425e-01
4.403451198660485844e+00,3.771867442426447142e-02,1.712508364051804066e-01,-1.217508226668603533e-01
4.420856144109737151e+00,4.162481131631393105e-02,1.677629118184154333e-01,-1.198712876116705128e-01
4.438261089558987571e+00,4.534761615369553578e-02,1.645192039383275573e-01,-1.182342515932933436e-01
4.455666035008238879e+00,4.889487667941965626e-02,1.615084908808256947e-01,-1.168191940668364542e-01
4.473070980457490187e+00,5.227295255974746813e-02,1.587170571073064085e-01,-1.156046784368918445e-01
4.490475925906740606e+00,5.548661645803456416e-02,1.561293329727803103e-01,-1.145687290238528305e-01
4.507880871355991914e+00,5.853901988392999634e-02,1.537285155128783609e-01,-1.136891880899258828e-01
4.525285816805242334e+00,6.143176577887613649e-02,1.514971410649342543e-01,-1.129440448407133257e-01
4.542690762254493642e+00,6.416506488269785313e-02,1.494175882771651143e-01,-1.123117299790543921e-01
4.560095707703744061e+00,6.673795102084370545e-02,1.474724984723724264e-01,-1.117713713389597435e-01
4.577500653152995369e+00,6.914853114361996234e-02,1.456451082202062930e-01,-1.113030081681544714e-01
4.594905598602246677e+00,7.139424858010864905e-02,1.439194956270890835e-01,-1.108877635636504044e-01
4.612310544051497097e+00,7.347214180025610220e-02,1.422807468862873348e-01,-1.105079762434518220e-01
4.629715489500748404e+00,7.537908531782959443e-02,1.407150529494553826e-01,-1.101472941657583027e-01
4.647120434949998824e+00,7.711200365761416986e-02,1.392097479199688459e-01,-1.097907334514536537e-01
4.664525380399250132e+00,7.866805316510036561e-02,1.377533012036510351e-01,-1.094247066416552949e-01
4.681930325848501440e+00,8.004476963523857180e-02,1.363352749196192204e-01,-1.090370245772531999e-01
4.699335271297751859e+00,8.124018219693772414e-02,1.349462569054992178e-01,-1.086168761857837783e-01
4.716740216747003167e+00,8.225289563116301716e-02,1.335777781361824346e-01,-1.081547902699253050e-01
4.734145162196253587e+00,8.308214440514682941e-02,1.322222217401231303e-01,-1.076425830733155342e-01
4.751550107645504895e+00,8.372782228700724472e-02,1.308727292027581923e-01,-1.070732950054407023e-01
4.768955053094755314e+00,8.419049158516017650e-02,1.295231078944134584e-01,-1.064411194786436671e-01
4.786359998544006622e+00,8.447137594898951329e-02,1.281677428036624156e-01,-1.057413263765421552e-01
4.803764943993257930e+00,8.457234036903114871e-02,1.268015143147624701e-01,-1.049701822545179991e-01
4.821169889442508349e+00,8.449586160501285081e-02,1.254197230337595892e-01,-1.041248689818772000e-01
4.838574834891759657e+00,8.424499180798372677e-02,1.240180220219300050e-01,-1.032034021784161704e-01
4.855979780341010077e+00,8.382331763079028941e-02,1.225923563096325414e-01,-1.022045504776625258e-01
4.873384725790261385e+00,8.323491666729146421e-02,1.211389092078797303e-01,-1.011277563640736316e-01
4.890789671239511804e+00,8.248431264153871512e-02,1.196540546788082554e-01,-9.997305907881481879e-02
4.908194616688763112e+00,8.157643039151557529e-02,1.181343148411965055e-01,-9.874101986347055826e-02
4.925599562138014420e+00,8.051655135937109409e-02,1.165763215469910047e-01,-9.743264960687088305e-02
4.943004507587264840e+00,7.931027000806162297e-02,1.149767808449121964e-01,-9.604933876933506587e-02
4.960409453036516148e+00,0.000000000000000000e+00,0.000000000000000000e+00,-0.000000000000000000e+00
4.977814398485766567e+00,0.000000000000000000e+00,0.000000000000000000e+00,-0.000000000000000000e+00
4.995219343935017875e+00,0.000000000000000000e+00,0.000000000000000000e+00,-0.000000000000000000e+00
5.012624289384268295e+00,0.000000000000000000e+00,0.000000000000000000e+00,-0.000000000000000000e+00
5.030029234833519602e+00,0.000000000000000000e+00,0.000000000000000000e+00,-0.000000000000000000e+00
5.047434180282770910e+00,0.000000000000000000e+00,0.000000000000000000e+00,-0.000000000000000000e+00
5.064839125732021330e+00,0.000000000000000000e+00,0.000000000000000000e+00,-0.000000000000000000e+00
5.082244071181272638e+00,0.000000000000000000e+00,0.000000000000000000e+00,-0.000000000000000000e+00
5.099649016630523057e+00,0.000000000000000000e+00,0.000000000000000000e+00,-0.000000000000000000e+00
5.117053962079774365e+00,0.000000000000000000e+00,0.000000000000000000e+00,-0.000000000000000000e+00
5.134458907529025673e+00,0.000000000000000000e+00,0.000000000000000000e+00,-0.000000000000000000e+00
5.151863852978276093e+00,0.000000000000000000e+00,0.000000000000000000e+00,-0.000000000000000000e+00
5.169268798427527400e+00,0.000000000000000000e+00,0.000000000000000000e+00,-0.000000000000000000e+00
5.186673743876777820e+00,0.000000000000000000e+00,0.000000000000000000e+00,-0.000000000000000000e+00
5.204078689326029128e+00,0.000000000000000000e+00,0.000000000000000000e+00,-0.000000000000000000e+00
5.221483634775279548e+00,0.000000000000000000e+00,0.000000000000000000e+00,-0.000000000000000000e+00
5.238888580224530855e+00,0.000000000000000000e+00,0.000000000000000000e+00,-0.000000000000000000e+00
5.256293525673782163e+00,0.000000000000000000e+00,0.000000000000000000e+00,-0.000000000000000000e+00
5.273698471123032583e+00,0.000000000000000000e+00,0.000000000000000000e+00,-0.000000000000000000e+00
5.291103416572283891e+00,0.000000000000000000e+00,0.000000000000000000e+00,-0.000000000000000000e+00
5.308508362021534310e+00,0.000000000000000000e+00,0.000000000000000000e+00,-0.000000000000000000e+00
5.325913307470785618e+00,0.000000000000000000e+00,0.000000000000000000e+00,-0.000000000000000000e+00
5.343318252920036038e+00,0.000000000000000000e+00,0.000000000000000000e+00,-0.000000000000000000e+00
5.360723198369287346e+00,0.000000000000000000e+00,0.000000000000000000e+00,-0.000000000000000000e+00
5.378128143818538653e+00,0.000000000000000000e+00,0.000000000000000000e+00,-0.000000000000000000e+00
5.395533089267789073e+00,0.000000000000000000e+00,0.000000000000000000e+00,-0.000000000000000000e+00
5.412938034717040381e+00,0.000000000000000000e+00,0.000000000000000000e+00,-0.000000000000000000e+00
5.430342980166290801e+00,0.000000000000000000e+00,0.000000000000000000e+00,-0.000000000000000000e+00
5.447747925615542108e+00,0.000000000000000000e+00,0.000000000000000000e+00,-0.000000000000000000e+00
5.465152871064793416e+00,0.000000000000000000e+00,0.000000000000000000e+00,-0.000000000000000000e+00
5.482557816514043836e+00,0.000000000000000000e+00,0.000000000000000000e+00,-0.000000000000000000e+00
5.499962761963295144e+00,0.000000000000000000e+00,0.000000000000000000e+00,-0.000000000000000000e+00
5.517367707412545563e+00,0.000000000000000000e+00,0.000000000000000000e+00,-0.000000000000000000e+00
5.534772652861796871e+00,0.000000000000000000e+00,0.000000000000000000e+00,-0.000000000000000000e+00
5.552177598311047291e+00,0.000000000000000000e+00,0.000000000000000000e+00,-0.000000000000000000e+00
5.569582543760298599e+00,0.000000000000000000e+00,0.000000000000000000e+00,-0.000000000000000000e+00
5.586987489209549906e+00,0.000000000000000000e+00,0.000000000000000000e+00,-0.000000000000000000e+00
5.604392434658800326e+00,0.000000000000000000e+00,0.000000000000000000e+00,-0.000000000000000000e+00
5.621797380108051634e+00,0.000000000000000000e+00,0.000000000000000000e+00,-0.000000000000000000e+00
5.639202325557302053e+00,0.000000000000000000e+00,0.000000000000000000e+00,-0.000000000000000000e+00
5.656607271006553361e+00,0.000000000000000000e+00,0.000000000000000000e+00,-0.000000000000000000e+00
5.674012216455803781e+00,0.000000000000000000e+00,0.000000000000000000e+00,-0.000000000000000000e+00
5.691417161905055089e+00,0.000000000000000000e+00,0.000000000000000000e+00,-0.000000000000000000e+00
5.708822107354306397e+00,0.000000000000000000e+00,0.000000000000000000e+00,-0.000000000000000000e+00
5.726227052803556816e+00,0.000000000000000000e+00,0.000000000000000000e+00,-0.000000000000000000e+00
5.743631998252808124e+00,0.000000000000000000e+00,0.000000000000000000e+00,-0.000000000000000000e+00
5.761036943702058544e+00,0.000000000000000000e+00,0.000000000000000000e+00,-0.000000000000000000e+00
5.778441889151309852e+00,0.000000000000000000e+00,0.000000000000000000e+00,-0.000000000000000000e+00
5.795846834600561159e+00,0.000000000000000000e+00,0.000000000000000000e+00,-0.000000000000000000e+00
5.813251780049811579e+00,0.000000000000000000e+00,0.000000000000000000e+00,-0.000000000000000000e+00
5.830656725499062887e+00,0.000000000000000000e+00,0.000000000000000000e+00,-0.000000000000000000e+00
5.848061670948313306e+00,0.000000000000000000e+00,0.000000000000000000e+00,-0.000000000000000000e+00
5.865466616397564614e+00,0.000000000000000000e+00,0.000000000000000000e+00,-0.000000000000000000e+00
5.882871561846815034e+00,0.000000000000000000e+00,0.000000000000000000e+00,-0.000000000000000000e+00
5.900276507296066342e+00,0.000000000000000000e+00,0.000000000000000000e+00,-0.000000000000000000e+00
5.917681452745317650e+00,0.000000000000000000e+00,0.000000000000000000e+00,-0.000000000000000000e+00
5.935086398194568069e+00,0.000000000000000000e+00,0.000000000000000000e+00,-0.000000000000000000e+00
5.952491343643819377e+00,0.000000000000000000e+00,0.000000000000000000e+00,-0.000000000000000000e+00
5.969896289093069797e+00,0.000000000000000000e+00,0.000000000000000000e+00,-0.000000000000000000e+00
5.987301234542321104e+00,0.000000000000000000e+00,0.000000000000000000e+00,-0.000000000000000000e+00
6.004706179991571524e+00,0.000000000000000000e+00,0.000000000000000000e+00,-0.000000000000000000e+00
6.022111125440822832e+00,0.000000000000000000e+00,0.000000000000000000e+00,-0.000000000000000000e+00
6.039516070890074140e+00,0.000000000000000000e+00,0.000000000000000000e+00,-0.000000000000000000e+00
6.056921016339324559e+00,0.000000000000000000e+00,0.000000000000000000e+00,-0.000000000000000000e+00
6.074325961788575867e+00,0.000000000000000000e+00,0.000000000000000000e+00,-0.000000000000000000e+00
6.091730907237826287e+00,0.000000000000000000e+00,0.000000000000000000e+00,-0.000000000000000000e+00
6.109135852687077595e+00,0.000000000000000000e+00,0.000000000000000000e+00,-0.000000000000000000e+00
6.126540798136328903e+00,0.000000000000000000e+00,0.000000000000000000e+00,-0.000000000000000000e+00
6.143945743585579322e+00,0.000000000000000000e+00,0.000000000000000000e+00,-0.000000000000000000e+00
6.161350689034830630e+00,0.000000000000000000e+00,0.000000000000000000e+00,-0.000000000000000000e+00
6.178755634484081050e+00,0.000000000000000000e+00,0.000000000000000000e+00,-0.000000000000000000e+00
6.196160579933332357e+00,0.000000000000000000e+00,0.000000000000000000e+00,-0.000000000000000000e+00
6.213565525382582777e+00,0.000000000000000000e+00,0.000000000000000000e+00,-0.000000000000000000e+00
6.230970470831834085e+00,0.000000000000000000e+00,0.000000000000000000e+00,-0.000000000000000000e+00
6.248375416281085393e+00,0.000000000000000000e+00,0.000000000000000000e+00,-0.000000000000000000e+00
6.265780361730335812e+00,0.000000000000000000e+00,0.000000000000000000e+00,-0.000000000000000000e+00
6.283185307179586232e+00,0.000000000000000000e+00,0.000000000000000000e+00,-0.000000000000000000e+00
