0.000000000000000000e+00,0.000000000000000000e+00,0.000000000000000000e+00,0.000000000000000000e+00,0.000000000000000000e+00,0.000000000000000000e+00
1.740494544925093312e-02,-2.113773339893819034e-02,-1.169290943071506390e-02,2.293585367134114150e-02,1.198008932736376389e-02,5.974950389578044009e-03
3.480989089850186624e-02,-4.437963138637631560e-02,-2.297091381743721072e-02,4.840160176341921916e-02,2.417995401779498427e-02,1.202553351585638336e-02
5.221483634775279936e-02,-6.967538073619507222e-02,-3.380275922234320107e-02,7.634202981634671814e-02,3.660381332449128000e-02,1.814814697601984175e-02
6.961978179700373248e-02,-9.696804897182019489e-02,-4.415824913779680533e-02,1.066912188476174667e-01,4.925137318668969949e-02,2.433758597715809935e-02
8.702472724625466560e-02,-1.261941087227100855e-01,-5.400840863069073655e-02,1.393717979396984497e-01,6.211738891361021087e-02,3.058701148880695400e-02
1.044296726955055987e-01,-1.572834541385607354e-01,-6.332564656482574106e-02,1.742941592352892366e-01,7.519125362103684651e-02,3.688794883111932987e-02
1.218346181447565318e-01,-1.901593966482713616e-01,-7.208391576542463874e-02,2.113556392770026271e-01,8.845660912701090728e-02,4.323031399150151222e-02
1.392395635940074650e-01,-2.247386258519679381e-01,-8.025887205514012357e-02,2.504396698601453752e-01,1.018909743107637295e-01,4.960246326691544749e-02
1.566445090432583842e-01,-2.609311208442501306e-01,-8.782803432747970929e-02,2.914149024142726474e-01,1.154653856455262056e-01,5.599126066835612842e-02
1.740494544925093312e-01,-2.986399982191572100e-01,-9.477094916108777523e-02,3.341343136237993061e-01,1.291440463252756798e-01,6.238215707918887826e-02
1.914543999417602782e-01,-3.377612859449921068e-01,-1.010693648129034200e-01,3.784343079760797424e-01,1.428839847341787372e-01,6.875927557745045715e-02
2.088593453910111974e-01,-3.781836179000759857e-01,-1.067074206103828943e-01,4.241338467519006339e-01,1.566347305766458142e-01,7.510549873115004993e-02
2.262642908402621167e-01,-4.197878529541945736e-01,-1.116718585794347629e-01,4.710336541901761764e-01,1.703380283681296958e-01,8.140255614458738465e-02
2.436692362895130637e-01,-4.624466359903260937e-01,-1.159522642955556765e-01,5.189155813858969957e-01,1.839276235767156598e-01,8.763111412442435577e-02
2.610741817387640107e-01,-5.060239370602579445e-01,-1.195413430236424990e-01,5.675422472764081183e-01,1.973291764642011448e-01,9.377087402336832522e-02
2.784791271880149299e-01,-5.503746294490521329e-01,-1.224352346986095769e-01,6.166571224557687581e-01,2.104603817008581235e-01,9.980069142934279436e-02
2.958840726372658492e-01,-5.953441973290529710e-01,-1.246338666030924608e-01,6.659852711626964572e-01,2.232313957401535764e-01,1.056987344375314719e-01
3.132890180865167684e-01,-6.407686966670947948e-01,-1.261413351741466349e-01,7.152350107800834467e-01,2.355456941607357302e-01,1.114427048569114620e-01
3.306939635357677432e-01,-6.864751240750175398e-01,-1.269662979532592828e-01,7.641007720453378838e-01,2.473014903794943931e-01,1.170101498353456337e-01
3.480989089850186624e-01,-7.322823687432312711e-01,-1.271223436706747645e-01,8.122674267513873003e-01,2.583938353473030358e-01,1.223788908650256385e-01
3.655038544342695817e-01,-7.780029203587547348e-01,-1.266282943184238730e-01,8.594162700491342344e-01,2.687174740258628791e-01,1.275275898987630885e-01
3.829087998835205564e-01,-8.234454673307878281e-01,-1.255083807711404875e-01,9.052326827731062009e-01,2.781704502029008763e-01,1.324364561815198627e-01
4.003137453327714756e-01,-8.684184341056015999e-01,-1.237922274165304398e-01,9.494152522793105620e-01,2.866583265376811962e-01,1.370880718434600298e-01
4.177186907820223949e-01,-9.127343731199074606e-01,-1.215145862684869488e-01,9.916858231478291597e-01,2.940987362711636188e-01,1.414682819212078335e-01
4.351236362312733141e-01,-9.562149619644924048e-01,-1.187147808262087462e-01,1.031799642180960985e+00,3.004258390161804737e-01,1.455670619453354464e-01
4.525285816805242334e-01,-9.986961944848602446e-01,-1.154358546240714656e-01,1.069554543807429869e+00,3.055941605295718899e-01,1.493792535364548979e-01
4.699335271297752081e-01,-1.040033242928895207e+00,-1.117234638310104083e-01,1.104798081943485943e+00,3.095812987314215947e-01,1.529050558277733618e-01
4.873384725790261274e-01,-1.080104449903315667e+00,-1.076245972871455181e-01,1.137431704168630819e+00,3.123890969199227818e-01,1.561501838401012365e-01
5.047434180282770466e-01,-1.118814003070930818e+00,-1.031862389313800560e-01,1.167411464683594469e+00,3.140431041390661093e-01,1.591256517487520394e-01
5.221483634775280214e-01,-1.156093035398977786e+00,-9.845409734171728378e-02,1.194745290228635071e+00,3.145904088286961553e-01,1.618471980836194146e-01
5.395533089267788851e-01,-1.191899130331667500e+00,-9.347151248518610622e-02,1.219487312118544109e+00,3.140961739096951311e-01,1.643344252111484383e-01
5.569582543760298599e-01,-1.226214432513390351e+00,-8.827861589183527702e-02,1.241730133569109773e+00,3.126393584427142325e-01,1.666097625233699531e-01
5.743631998252808346e-01,-1.259042719847312641e+00,-8.291177766889260004e-02,1.261596047625197281e+00,3.103081549228836056e-01,1.686973743090087463e-01
5.917681452745316983e-01,-1.290405858464650724e+00,-7.740333318349054692e-02,1.279228162635429822e+00,3.071956121933844264e-01,1.706221208247138410e-01
6.091730907237826731e-01,-1.320340044771428856e+00,-7.178155191054044759e-02,1.294782189492654778e+00,3.033957884302138086e-01,1.724086526143830955e-01
6.265780361730335368e-01,-1.348892163909119590e+00,-6.607079413424307712e-02,1.308419378617204698e+00,2.990006307699386578e-01,1.740806837989659073e-01
6.439829816222845116e-01,-1.376116493272066865e+00,-6.029179693766015952e-02,1.320300835610079604e+00,2.940976437559272849e-01,1.756604584041047690e-01
6.613879270715354863e-01,-1.402071879657208475e+00,-5.446203577660986561e-02,1.330583236928377655e+00,2.887683081177968014e-01,1.771683998104293944e-01
6.787928725207863501e-01,-1.426819435631675459e+00,-4.859611785297089648e-02,1.339415827319158092e+00,2.830871497584572238e-01,1.786229185741359804e-01
6.961978179700373248e-01,-1.450420741327411722e+00,-4.270617504229455574e-02,1.346938505308777234e+00,2.771213314108249004e-01,1.800403471917153830e-01
7.136027634192882996e-01,-1.472936501549764854e+00,-3.680223498860736575e-02,1.353280777523647727e+00,2.709306369087138844e-01,1.814349697290141561e-01
7.310077088685391633e-01,-1.494425590497827860e+00,-3.089255796251993980e-02,1.358561370164988569e+00,2.645677306415586405e-01,1.828191172931091790e-01
7.484126543177901381e-01,-1.514944412077597002e+00,-2.498393382384796538e-02,1.362888311780768857e+00,2.580785945675781456e-01,1.842033051765293583e-01
7.658175997670411128e-01,-1.534546507715087049e+00,-1.908193807514582674e-02,1.366359334667648362e+00,2.515030666528147441e-01,1.855963928035828103e-01
7.832225452162919765e-01,-1.553282351825280294e+00,-1.319114891050363059e-02,1.369062475830525871e+00,2.448754245564775389e-01,1.870057525559417899e-01
8.006274906655429513e-01,-1.571199284960141052e+00,-7.315328785768178237e-03,1.371076788631417909e+00,2.382249752690884514e-01,1.884374377611770235e-01
8.180324361147938150e-01,-1.588341544479584311e+00,-1.457574756259064595e-03,1.372473101473353552e+00,2.315766248060525667e-01,1.898963434785410354e-01
8.354373815640447898e-01,-1.604750361468493924e+00,4.379558035593112200e-03,1.373314779832333077e+00,2.249514121633501840e-01,1.913863562520332906e-01
8.528423270132957645e-01,-1.620464100180422085e+00,1.019395555106737683e-02,1.373658463127208851e+00,2.183669990378123149e-01,1.929104908364666360e-01
8.702472724625466283e-01,-1.635518422455848775e+00,1.598386294651317485e-02,1.373554759060112485e+00,2.118381118663084928e-01,1.944710131752825089e-01
8.876522179117976030e-01,-1.649946464439306482e+00,2.174781825645854400e-02,1.373048885984124334e+00,2.053769360809721001e-01,1.960695497510971386e-01
9.050571633610484668e-01,-1.663779016680067446e+00,2.748459883825178293e-02,1.372181259310717438e+00,1.989934645680332681e-01,1.977071839550570420e-01
9.224621088102994415e-01,-1.677044701540562954e+00,3.319317819882840193e-02,1.370988021590995309e+00,1.926958035211016051e-01,1.993845404205680516e-01
9.398670542595504163e-01,-1.689770143940872993e+00,3.887269122876185062e-02,1.369501518199055745e+00,1.864904394750263872e-01,2.011018584112649055e-01
9.572719997088012800e-01,-1.701980132999201256e+00,4.452240622037953455e-02,1.367750721903429501e+00,1.803824714997043221e-01,2.028590553944599473e-01
9.746769451580522547e-01,-1.713697773222602194e+00,5.014170234555344330e-02,1.365761610325367581e+00,1.743758124719855807e-01,2.046557819073976381e-01
9.920818906073032295e-01,-1.724944624668198978e+00,5.573005151865210310e-02,1.363557500563878255e+00,1.684733631311177149e-01,2.064914687608476185e-01
1.009486836056554093e+00,-1.735740832017997892e+00,6.128700377660026288e-02,1.361159345269279175e+00,1.626771623289494928e-01,2.083653675409365691e-01
1.026891781505804957e+00,-1.746105242855723327e+00,6.681217547705062265e-02,1.358585994276510833e+00,1.569885165566098917e-01,2.102765852776117272e-01
1.044296726955056043e+00,-1.756055515651486543e+00,7.230523975317537655e-02,1.355854425640090621e+00,1.514081114940298567e-01,2.122241140544204041e-01
1.061701672404306906e+00,-1.765608218086667458e+00,7.776591877485075632e-02,1.352979949593851261e+00,1.459361080053877546e-01,2.142068562440615220e-01
1.079106617853557770e+00,-1.774778916414515795e+00,8.319397745570082658e-02,1.349976388622931012e+00,1.405722247024101534e-01,2.162236459700727642e-01
1.096511563302808856e+00,-1.783582256571725644e+00,8.858921831755418863e-02,1.346856236503409576e+00,1.353158089233925665e-01,2.182732673183656602e-01
1.113916508752059720e+00,-1.792032037747119722e+00,9.395147728169125911e-02,1.343630798848857610e+00,1.301658977304393783e-01,2.203544697535533003e-01
1.131321454201310583e+00,-1.800141279085996526e+00,9.928062020256732401e-02,1.340310317409714846e+00,1.251212703103667390e-01,2.224659811340292948e-01
1.148726399650561669e+00,-1.807922280169986573e+00,1.045765399967361758e-01,1.336904080104006187e+00,1.201804929743890554e-01,2.246065186661315993e-01
1.166131345099812533e+00,-1.815386675867596722e+00,1.098391542493153406e-01,1.333420518517255848e+00,1.153419577859094575e-01,2.267747980908818572e-01
1.183536290549063397e+00,-1.822545486103492873e+00,1.150684032039941546e-01,1.329867294394921684e+00,1.106039157020138469e-01,2.289695413560657589e-01
1.200941235998314482e+00,-1.829409161047347965e+00,1.202642480614854459e-01,1.326251376460756415e+00,1.059645049901365849e-01,2.311894829911443627e-01
1.218346181447565346e+00,-1.835987622177295941e+00,1.254266695264196763e-01,1.322579108727240049e+00,1.014217755744366012e-01,2.334333753720165827e-01
1.235751126896816210e+00,-1.842290299629613326e+00,1.305556665547388806e-01,1.318856271317505602e+00,9.697370987449108193e-02,2.356999930363853080e-01
1.253156072346067074e+00,-1.848326166205738419e+00,1.356512552632771762e-01,1.315088134689828436e+00,9.261824061998036317e-02,2.379881361878662671e-01
1.270561017795318159e+00,-1.854103768370368943e+00,1.407134679709096947e-01,1.311279508043705633e+00,8.835326605731672056e-02,2.402966335075346349e-01
1.287965963244569023e+00,-1.859631254540228706e+00,1.457423523467978876e-01,1.307434782588868138e+00,8.417666290609912561e-02,2.426243443748916095e-01
1.305370908693819887e+00,-1.864916400932071783e+00,1.507379706461682567e-01,1.303557970273500954e+00,8.008629737348554878e-02,2.449701605858768672e-01
1.322775854143070973e+00,-1.869966635210477790e+00,1.557003990179843256e-01,1.299652738493874526e+00,7.608003449187997203e-02,2.473330076432193325e-01
1.340180799592321836e+00,-1.874789058150777787e+00,1.606297268720042470e-01,1.295722441243132517e+00,7.215574600870999777e-02,2.497118456838257061e-01
1.357585745041572700e+00,-1.879390463509832410e+00,1.655260562952205472e-01,1.291770147100852917e+00,6.831131702564309516e-02,2.521056700988045796e-01
1.374990690490823786e+00,-1.883777356277138493e+00,1.703895015096732746e-01,1.287798664416133665e+00,6.454465155760796824e-02,2.545135118939011454e-01
1.392395635940074650e+00,-1.887955969460655803e+00,1.752201883652235448e-01,1.283810563994371545e+00,6.085367715880077299e-02,2.569344378313933031e-01
1.409800581389325513e+00,-1.891932279545599505e+00,1.800182538621465933e-01,1.279808199560774629e+00,5.723634874291837205e-02,2.593675503887165612e-01
1.427205526838576599e+00,-1.895712020750052185e+00,1.847838456994137790e-01,1.275793726241262860e+00,5.369065170770619816e-02,2.618119875641081173e-01
1.444610472287827463e+00,-1.899300698188426173e+00,1.895171218453414741e-01,1.271769117273111815e+00,5.021460445912787757e-02,2.642669225552762291e-01
1.462015417737078327e+00,-1.902703600042377818e+00,1.942182501279262063e-01,1.267736179132973540e+00,4.680626041772466273e-02,2.667315633334125802e-01
1.479420363186329412e+00,-1.905925808828597967e+00,1.988874078426911274e-01,1.263696565248259240e+00,4.346370957874131497e-02,2.692051521316839446e-01
1.496825308635580276e+00,-1.908972211843836364e+00,2.035247813762754432e-01,1.259651788438915343e+00,4.018507968809910402e-02,2.716869648645997559e-01
1.514230254084831140e+00,-1.911847510859435051e+00,2.081305658443158291e-01,1.255603232219997478e+00,3.696853708809051675e-02,2.741763104922889105e-01
1.531635199534082226e+00,-1.914556231130442487e+00,2.127049647424183731e-01,1.251552161080846437e+00,3.381228727957016206e-02,2.766725303416772141e-01
1.549040144983333089e+00,-1.917102729777958148e+00,2.172481896092194886e-01,1.247499729843839722e+00,3.071457524126617461e-02,2.791749973947989516e-01
1.566445090432583953e+00,-1.919491203597621043e+00,2.217604597006875011e-01,1.243446992194399581e+00,2.767368554150659993e-02,2.816831155529546660e-01
1.583850035881834817e+00,-1.921725696342035938e+00,2.262420016749362717e-01,1.239394908463982592e+00,2.468794227303341970e-02,2.841963188841136190e-01
1.601254981331085903e+00,-1.923810105520358249e+00,2.306930492869172233e-01,1.235344352739002005e+00,2.175570883756100526e-02,2.867140708598280852e-01
1.618659926780336766e+00,-1.925748188754166756e+00,2.351138430924260558e-01,1.231296119360875352e+00,1.887538760325060960e-02,2.892358635869434758e-01
1.636064872229587630e+00,-1.927543569725090666e+00,2.395046301609175254e-01,1.227250928875533775e+00,1.604541945523832100e-02,2.917612170385442960e-01
1.653469817678838716e+00,-1.929199743746380147e+00,2.438656637966607199e-01,1.223209433484658826e+00,1.326428325671786222e-02,2.942896782878430817e-01
1.670874763128089580e+00,-1.930720082987667174e+00,2.481972032678005646e-01,1.219172222045528331e+00,1.053049523578114197e-02,2.968208207480876881e-01
1.688279708577340443e+00,-1.932107841379530289e+00,2.524995135429134452e-01,1.215139824661576995e+00,7.842608311219370631e-03,2.993542434210170744e-01
1.705684654026591529e+00,-1.933366159222103864e+00,2.567728650346612351e-01,1.211112716901532327e+00,5.199211368743600348e-03,3.018895701559234368e-01
1.723089599475842393e+00,-1.934498067519846431e+00,2.610175333501602579e-01,1.207091323681213080e+00,2.598928497562589136e-03,3.044264489209717039e-01
1.740494544925093257e+00,-1.935506492062669004e+00,2.652337990476913987e-01,1.203076022838710735e+00,4.041819592873218715e-05,3.069645510880778527e-01
1.757899490374344342e+00,-1.936394257271897956e+00,2.694219473993803571e-01,1.199067148430679408e+00,-2.477627446894003615e-03,3.095035707323423035e-01
1.775304435823595206e+00,-1.937164089827995150e+00,2.735822681594829442e-01,1.195064993774783479e+00,-4.956483585797908688e-03,3.120432239467767488e-01
1.792709381272846070e+00,-1.937818622095559107e+00,2.777150553379136855e-01,1.191069814260955928e+00,-7.397393466575355112e-03,3.145832481728371710e-01
1.810114326722096934e+00,-1.938360395359862931e+00,2.818206069786541312e-01,1.187081829951985412e+00,-9.801569279448875058e-03,3.171234015470837386e-01
1.827519272171348019e+00,-1.938791862888044948e+00,2.858992249426820509e-01,1.183101227992034321e+00,-1.217019301527137200e-02,3.196634622641231216e-01
1.844924217620598883e+00,-1.939115392827037043e+00,2.899512146950619651e-01,1.179128164839962745e+00,-1.450441732086799919e-02,3.222032279558483814e-01
1.862329163069849747e+00,-1.939333270949376242e+00,2.939768850958391910e-01,1.175162768342802311e+00,-1.680536635050455460e-02,3.247425150868705757e-01
1.879734108519100833e+00,-1.939447703257204836e+00,2.979765481943810190e-01,1.171205139663328954e+00,-1.907413661091486579e-02,3.272811583659342993e-01
1.897139053968351696e+00,-1.939460818453990765e+00,3.019505190268110262e-01,1.167255355074439338e+00,-2.131179779771093241e-02,3.298190101730230639e-01
1.914543999417602560e+00,-1.939374670292811631e+00,3.058991154161858073e-01,1.163313467631909459e+00,-2.351939362134134945e-02,3.323559400017888632e-01
1.931948944866853646e+00,-1.939191239809405554e+00,3.098226577750659017e-01,1.159379508736103404e+00,-2.569794262105950036e-02,3.348918339168771574e-01
1.949353890316104509e+00,-1.938912437447623427e+00,3.137214689101384124e-01,1.155453489592282557e+00,-2.784843896562351484e-02,3.374265940256716001e-01
1.966758835765355373e+00,-1.938540105084392895e+00,3.175958738285549199e-01,1.151535402578334644e+00,-2.997185323967541809e-02,3.399601379639406451e-01
1.984163781214606459e+00,-1.938076017960826292e+00,3.214461995456535659e-01,1.147625222527999700e+00,-3.206913321494262586e-02,3.424923983948359174e-01
2.001568726663857323e+00,-1.937521886525670700e+00,3.252727748937430663e-01,1.143722907936981059e+00,-3.414120460557611147e-02,3.450233225206668641e-01
2.018973672113108186e+00,-1.936879358196906376e+00,3.290759303316369011e-01,1.139828402098716165e+00,-3.618897180708822992e-02,3.475528716068588819e-01
2.036378617562359050e+00,-1.936150019046927628e+00,3.328559977546344806e-01,1.135941634176021342e+00,-3.821331861848062394e-02,3.500810205174870737e-01
2.053783563011609914e+00,-1.935335395416415638e+00,3.366133103046591857e-01,1.132062520214306423e+00,-4.021510894726484237e-02,3.526077572617715150e-01
2.071188508460861222e+00,-1.934790718157001654e+00,3.389209912190188079e-01,1.129672235698530258e+00,-4.143966082716881577e-02,3.541664719140020234e-01
2.088593453910112085e+00,-1.934790718157001654e+00,3.389209912190188079e-01,1.129672235698530258e+00,-4.143966082716881577e-02,3.541664719140020234e-01
2.105998399359362949e+00,-1.934790718157001654e+00,3.389209912190188079e-01,1.129672235698530258e+00,-4.143966082716881577e-02,3.541664719140020234e-01
2.123403344808613813e+00,-1.934790718157001654e+00,3.389209912190188079e-01,1.129672235698530258e+00,-4.143966082716881577e-02,3.541664719140020234e-01
2.140808290257864677e+00,-1.934790718157001654e+00,3.389209912190188079e-01,1.129672235698530258e+00,-4.143966082716881577e-02,3.541664719140020234e-01
2.158213235707115540e+00,-1.934790718157001654e+00,3.389209912190188079e-01,1.129672235698530258e+00,-4.143966082716881577e-02,3.541664719140020234e-01
2.175618181156366848e+00,-1.934790718157001654e+00,3.389209912190188079e-01,1.129672235698530258e+00,-4.143966082716881577e-02,3.541664719140020234e-01
2.193023126605617712e+00,-1.934790718157001654e+00,3.389209912190188079e-01,1.129672235698530258e+00,-4.143966082716881577e-02,3.541664719140020234e-01
2.210428072054868576e+00,-1.934790718157001654e+00,3.389209912190188079e-01,1.129672235698530258e+00,-4.143966082716881577e-02,3.541664719140020234e-01
2.227833017504119439e+00,-1.934790718157001654e+00,3.389209912190188079e-01,1.129672235698530258e+00,-4.143966082716881577e-02,3.541664719140020234e-01
2.245237962953370303e+00,-1.934790718157001654e+00,3.389209912190188079e-01,1.129672235698530258e+00,-4.143966082716881577e-02,3.541664719140020234e-01
2.262642908402621167e+00,-1.934790718157001654e+00,3.389209912190188079e-01,1.129672235698530258e+00,-4.143966082716881577e-02,3.541664719140020234e-01
2.280047853851872031e+00,-1.934790718157001654e+00,3.389209912190188079e-01,1.129672235698530258e+00,-4.143966082716881577e-02,3.541664719140020234e-01
2.297452799301123338e+00,-1.934790718157001654e+00,3.389209912190188079e-01,1.129672235698530258e+00,-4.143966082716881577e-02,3.541664719140020234e-01
2.314857744750374202e+00,-1.934790718157001654e+00,3.389209912190188079e-01,1.129672235698530258e+00,-4.143966082716881577e-02,3.541664719140020234e-01
2.332262690199625066e+00,-1.934790718157001654e+00,3.389209912190188079e-01,1.129672235698530258e+00,-4.143966082716881577e-02,3.541664719140020234e-01
2.349667635648875930e+00,-1.934790718157001654e+00,3.389209912190188079e-01,1.129672235698530258e+00,-4.143966082716881577e-02,3.541664719140020234e-01
2.367072581098126793e+00,-1.934790718157001654e+00,3.389209912190188079e-01,1.129672235698530258e+00,-4.143966082716881577e-02,3.541664719140020234e-01
2.384477526547377657e+00,-1.934790718157001654e+00,3.389209912190188079e-01,1.129672235698530258e+00,-4.143966082716881577e-02,3.541664719140020234e-01
2.401882471996628965e+00,-1.934790718157001654e+00,3.389209912190188079e-01,1.129672235698530258e+00,-4.143966082716881577e-02,3.541664719140020234e-01
2.419287417445879829e+00,-1.934790718157001654e+00,3.389209912190188079e-01,1.129672235698530258e+00,-4.143966082716881577e-02,3.541664719140020234e-01
2.436692362895130692e+00,-1.934790718157001654e+00,3.389209912190188079e-01,1.129672235698530258e+00,-4.143966082716881577e-02,3.541664719140020234e-01
2.454097308344381556e+00,-1.934790718157001654e+00,3.389209912190188079e-01,1.129672235698530258e+00,-4.143966082716881577e-02,3.541664719140020234e-01
2.471502253793632420e+00,-1.934790718157001654e+00,3.389209912190188079e-01,1.129672235698530258e+00,-4.143966082716881577e-02,3.541664719140020234e-01
2.488907199242883284e+00,-1.934790718157001654e+00,3.389209912190188079e-01,1.129672235698530258e+00,-4.143966082716881577e-02,3.541664719140020234e-01
2.506312144692134147e+00,-1.934790718157001654e+00,3.389209912190188079e-01,1.129672235698530258e+00,-4.143966082716881577e-02,3.541664719140020234e-01
2.523717090141385455e+00,-1.934790718157001654e+00,3.389209912190188079e-01,1.129672235698530258e+00,-4.143966082716881577e-02,3.541664719140020234e-01
2.541122035590636319e+00,-1.934790718157001654e+00,3.389209912190188079e-01,1.129672235698530258e+00,-4.143966082716881577e-02,3.541664719140020234e-01
2.558526981039887183e+00,-1.934790718157001654e+00,3.389209912190188079e-01,1.129672235698530258e+00,-4.143966082716881577e-02,3.541664719140020234e-01
2.575931926489138046e+00,-1.934790718157001654e+00,3.389209912190188079e-01,1.129672235698530258e+00,-4.143966082716881577e-02,3.541664719140020234e-01
2.593336871938388910e+00,-1.934790718157001654e+00,3.389209912190188079e-01,1.129672235698530258e+00,-4.143966082716881577e-02,3.541664719140020234e-01
2.610741817387639774e+00,-1.934790718157001654e+00,3.389209912190188079e-01,1.129672235698530258e+00,-4.143966082716881577e-02,3.541664719140020234e-01
2.628146762836891082e+00,-1.934790718157001654e+00,3.389209912190188079e-01,1.129672235698530258e+00,-4.143966082716881577e-02,3.541664719140020234e-01
2.645551708286141945e+00,-1.934790718157001654e+00,3.389209912190188079e-01,1.129672235698530258e+00,-4.143966082716881577e-02,3.541664719140020234e-01
2.662956653735392809e+00,-1.934790718157001654e+00,3.389209912190188079e-01,1.129672235698530258e+00,-4.143966082716881577e-02,3.541664719140020234e-01
2.680361599184643673e+00,-1.934790718157001654e+00,3.389209912190188079e-01,1.129672235698530258e+00,-4.143966082716881577e-02,3.541664719140020234e-01
2.697766544633894537e+00,-1.934790718157001654e+00,3.389209912190188079e-01,1.129672235698530258e+00,-4.143966082716881577e-02,3.541664719140020234e-01
2.715171490083145400e+00,-1.934790718157001654e+00,3.389209912190188079e-01,1.129672235698530258e+00,-4.143966082716881577e-02,3.541664719140020234e-01
2.732576435532396708e+00,-1.934790718157001654e+00,3.389209912190188079e-01,1.129672235698530258e+00,-4.143966082716881577e-02,3.541664719140020234e-01
2.749981380981647572e+00,-1.934790718157001654e+00,3.389209912190188079e-01,1.129672235698530258e+00,-4.143966082716881577e-02,3.541664719140020234e-01
2.767386326430898436e+00,-1.934790718157001654e+00,3.389209912190188079e-01,1.129672235698530258e+00,-4.143966082716881577e-02,3.541664719140020234e-01
2.784791271880149299e+00,-1.934790718157001654e+00,3.389209912190188079e-01,1.129672235698530258e+00,-4.143966082716881577e-02,3.541664719140020234e-01
2.802196217329400163e+00,-1.934790718157001654e+00,3.389209912190188079e-01,1.129672235698530258e+00,-4.143966082716881577e-02,3.541664719140020234e-01
2.819601162778651027e+00,-1.934790718157001654e+00,3.389209912190188079e-01,1.129672235698530258e+00,-4.143966082716881577e-02,3.541664719140020234e-01
2.837006108227901890e+00,-1.934790718157001654e+00,3.389209912190188079e-01,1.129672235698530258e+00,-4.143966082716881577e-02,3.541664719140020234e-01
2.854411053677153198e+00,-1.934790718157001654e+00,3.389209912190188079e-01,1.129672235698530258e+00,-4.143966082716881577e-02,3.541664719140020234e-01
2.871815999126404062e+00,-1.934790718157001654e+00,3.389209912190188079e-01,1.129672235698530258e+00,-4.143966082716881577e-02,3.541664719140020234e-01
2.889220944575654926e+00,-1.934790718157001654e+00,3.389209912190188079e-01,1.129672235698530258e+00,-4.143966082716881577e-02,3.541664719140020234e-01
2.906625890024905789e+00,-1.934790718157001654e+00,3.389209912190188079e-01,1.129672235698530258e+00,-4.143966082716881577e-02,3.541664719140020234e-01
2.924030835474156653e+00,-1.934790718157001654e+00,3.389209912190188079e-01,1.129672235698530258e+00,-4.143966082716881577e-02,3.541664719140020234e-01
2.941435780923407517e+00,-1.934790718157001654e+00,3.389209912190188079e-01,1.129672235698530258e+00,-4.143966082716881577e-02,3.541664719140020234e-01
2.958840726372658825e+00,-1.934790718157001654e+00,3.389209912190188079e-01,1.129672235698530258e+00,-4.143966082716881577e-02,3.541664719140020234e-01
2.976245671821909689e+00,-1.934790718157001654e+00,3.389209912190188079e-01,1.129672235698530258e+00,-4.143966082716881577e-02,3.541664719140020234e-01
2.993650617271160552e+00,-1.934790718157001654e+00,3.389209912190188079e-01,1.129672235698530258e+00,-4.143966082716881577e-02,3.541664719140020234e-01
3.011055562720411416e+00,-1.934790718157001654e+00,3.389209912190188079e-01,1.129672235698530258e+00,-4.143966082716881577e-02,3.541664719140020234e-01
3.028460508169662280e+00,-1.934790718157001654e+00,3.389209912190188079e-01,1.129672235698530258e+00,-4.143966082716881577e-02,3.541664719140020234e-01
3.045865453618913143e+00,-1.934790718157001654e+00,3.389209912190188079e-01,1.129672235698530258e+00,-4.143966082716881577e-02,3.541664719140020234e-01
3.063270399068164451e+00,-1.934790718157001654e+00,3.389209912190188079e-01,1.129672235698530258e+00,-4.143966082716881577e-02,3.541664719140020234e-01
3.080675344517415315e+00,-1.934790718157001654e+00,3.389209912190188079e-01,1.129672235698530258e+00,-4.143966082716881577e-02,3.541664719140020234e-01
3.098080289966666179e+00,-1.934790718157001654e+00,3.389209912190188079e-01,1.129672235698530258e+00,-4.143966082716881577e-02,3.541664719140020234e-01
3.115485235415917042e+00,-1.934790718157001654e+00,3.389209912190188079e-01,1.129672235698530258e+00,-4.143966082716881577e-02,3.541664719140020234e-01
3.132890180865167906e+00,-1.934790718157001654e+00,3.389209912190188079e-01,1.129672235698530258e+00,-4.143966082716881577e-02,3.541664719140020234e-01
3.150295126314418770e+00,-1.934790718157001654e+00,3.389209912190188079e-01,1.129672235698530258e+00,-4.143966082716881577e-02,3.541664719140020234e-01
3.167700071763669634e+00,-1.934790718157001654e+00,3.389209912190188079e-01,1.129672235698530258e+00,-4.143966082716881577e-02,3.541664719140020234e-01
3.185105017212920941e+00,-1.934790718157001654e+00,3.389209912190188079e-01,1.129672235698530258e+00,-4.143966082716881577e-02,3.541664719140020234e-01
3.202509962662171805e+00,-1.934790718157001654e+00,3.389209912190188079e-01,1.129672235698530258e+00,-4.143966082716881577e-02,3.541664719140020234e-01
3.219914908111422669e+00,-1.934790718157001654e+00,3.389209912190188079e-01,1.129672235698530258e+00,-4.143966082716881577e-02,3.541664719140020234e-01
3.237319853560673533e+00,-1.934790718157001654e+00,3.389209912190188079e-01,1.129672235698530258e+00,-4.143966082716881577e-02,3.541664719140020234e-01
3.254724799009924396e+00,-1.934790718157001654e+00,3.389209912190188079e-01,1.129672235698530258e+00,-4.143966082716881577e-02,3.541664719140020234e-01
3.272129744459175260e+00,-1.934790718157001654e+00,3.389209912190188079e-01,1.129672235698530258e+00,-4.143966082716881577e-02,3.541664719140020234e-01
3.289534689908426568e+00,-1.934790718157001654e+00,3.389209912190188079e-01,1.129672235698530258e+00,-4.143966082716881577e-02,3.541664719140020234e-01
3.306939635357677432e+00,-1.934790718157001654e+00,3.389209912190188079e-01,1.129672235698530258e+00,-4.143966082716881577e-02,3.541664719140020234e-01
3.324344580806928295e+00,-1.934790718157001654e+00,3.389209912190188079e-01,1.129672235698530258e+00,-4.143966082716881577e-02,3.541664719140020234e-01
3.341749526256179159e+00,-1.934790718157001654e+00,3.389209912190188079e-01,1.129672235698530258e+00,-4.143966082716881577e-02,3.541664719140020234e-01
3.359154471705430023e+00,-1.934790718157001654e+00,3.389209912190188079e-01,1.129672235698530258e+00,-4.143966082716881577e-02,3.541664719140020234e-01
3.376559417154680887e+00,-1.934790718157001654e+00,3.389209912190188079e-01,1.129672235698530258e+00,-4.143966082716881577e-02,3.541664719140020234e-01
3.393964362603931750e+00,-1.934790718157001654e+00,3.389209912190188079e-01,1.129672235698530258e+00,-4.143966082716881577e-02,3.541664719140020234e-01
3.411369308053183058e+00,-1.934790718157001654e+00,3.389209912190188079e-01,1.129672235698530258e+00,-4.143966082716881577e-02,3.541664719140020234e-01
3.428774253502433922e+00,-1.934790718157001654e+00,3.389209912190188079e-01,1.129672235698530258e+00,-4.143966082716881577e-02,3.541664719140020234e-01
3.446179198951684786e+00,-1.934790718157001654e+00,3.389209912190188079e-01,1.129672235698530258e+00,-4.143966082716881577e-02,3.541664719140020234e-01
3.463584144400935649e+00,-1.934790718157001654e+00,3.389209912190188079e-01,1.129672235698530258e+00,-4.143966082716881577e-02,3.541664719140020234e-01
3.480989089850186513e+00,-1.934790718157001654e+00,3.389209912190188079e-01,1.129672235698530258e+00,-4.143966082716881577e-02,3.541664719140020234e-01
3.498394035299437377e+00,-1.934790718157001654e+00,3.389209912190188079e-01,1.129672235698530258e+00,-4.143966082716881577e-02,3.541664719140020234e-01
3.515798980748688685e+00,-1.934790718157001654e+00,3.389209912190188079e-01,1.129672235698530258e+00,-4.143966082716881577e-02,3.541664719140020234e-01
3.533203926197939548e+00,-1.934790718157001654e+00,3.389209912190188079e-01,1.129672235698530258e+00,-4.143966082716881577e-02,3.541664719140020234e-01
3.550608871647190412e+00,-1.934790718157001654e+00,3.389209912190188079e-01,1.129672235698530258e+00,-4.143966082716881577e-02,3.541664719140020234e-01
3.568013817096441276e+00,-1.934790718157001654e+00,3.389209912190188079e-01,1.129672235698530258e+00,-4.143966082716881577e-02,3.541664719140020234e-01
3.585418762545692140e+00,-1.934790718157001654e+00,3.389209912190188079e-01,1.129672235698530258e+00,-4.143966082716881577e-02,3.541664719140020234e-01
3.602823707994943003e+00,-1.934790718157001654e+00,3.389209912190188079e-01,1.129672235698530258e+00,-4.143966082716881577e-02,3.541664719140020234e-01
3.620228653444193867e+00,-1.934790718157001654e+00,3.389209912190188079e-01,1.129672235698530258e+00,-4.143966082716881577e-02,3.541664719140020234e-01
3.637633598893445175e+00,-1.934790718157001654e+00,3.389209912190188079e-01,1.129672235698530258e+00,-4.143966082716881577e-02,3.541664719140020234e-01
3.655038544342696039e+00,-1.934790718157001654e+00,3.389209912190188079e-01,1.129672235698530258e+00,-4.143966082716881577e-02,3.541664719140020234e-01
3.672443489791946902e+00,-1.934790718157001654e+00,3.389209912190188079e-01,1.129672235698530258e+00,-4.143966082716881577e-02,3.541664719140020234e-01
3.689848435241197766e+00,-1.934790718157001654e+00,3.389209912190188079e-01,1.129672235698530258e+00,-4.143966082716881577e-02,3.541664719140020234e-01
3.707253380690448630e+00,-1.934790718157001654e+00,3.389209912190188079e-01,1.129672235698530258e+00,-4.143966082716881577e-02,3.541664719140020234e-01
3.724658326139699493e+00,-1.931200129505221463e+00,3.402389396103268071e-01,1.127993948433775762e+00,-4.267795461678666746e-02,3.556953827682779457e-01
3.742063271588950801e+00,-1.924047227920176129e+00,3.428366525656720287e-01,1.124690319647465797e+00,-4.514704188225752979e-02,3.587254505389899095e-01
3.759468217038201665e+00,-1.916825470615570959e+00,3.454224769341826540e-01,1.121407969603494204e+00,-4.764322852149258103e-02,3.617638151976632632e-01
3.776873162487452529e+00,-1.909534785206352225e+00,3.479961633592184578e-01,1.118147697619032099e+00,-5.016697793632639291e-02,3.648103243257397876e-01
3.794278107936703393e+00,-1.902175108852877550e+00,3.505574556446722223e-01,1.114910316908245047e+00,-5.271875515400135243e-02,3.678648163014001660e-01
3.811683053385954256e+00,-1.894746388482562161e+00,3.531060908022969902e-01,1.111696654304163756e+00,-5.529902676496589037e-02,3.709271202178296423e-01
3.829087998835205120e+00,-1.887248581005320780e+00,3.556417990980738075e-01,1.108507549958618332e+00,-5.790826084914584698e-02,3.739970558014369950e-01
3.846492944284456428e+00,-1.879681653522561557e+00,3.581643040976247305e-01,1.105343857018684650e+00,-6.054692688993695143e-02,3.770744333301540019e-01
3.863897889733707292e+00,-1.872045583529426960e+00,3.606733227106804218e-01,1.102206441277962634e+00,-6.321549567510968692e-02,3.801590535519683289e-01
3.881302835182958155e+00,-1.864340359109911027e+00,3.631685652346196558e-01,1.099096180800873901e+00,-6.591443918375931854e-02,3.832507076038709770e-01
3.898707780632209019e+00,-1.856565979124412680e+00,3.656497353970994957e-01,1.096013965518020550e+00,-6.864423045836737236e-02,3.863491769314272850e-01
3.916112726081459883e+00,-1.848722453389203935e+00,3.681165303978026770e-01,1.092960696790493902e+00,-7.140534346097200669e-02,3.894542332092119641e-01
3.933517671530710746e+00,-1.840809802847207743e+00,3.705686409493315070e-01,1.089937286940851013e+00,-7.419825291237010234e-02,3.925656382623841090e-01
3.950922616979961610e+00,-1.832828059729387560e+00,3.730057513172824746e-01,1.086944658748304704e+00,-7.702343411319237387e-02,3.956831439897119940e-01
3.968327562429212918e+00,-1.824777267705946615e+00,3.754275393595374877e-01,1.083983744905469448e+00,-7.988136274560554695e-02,3.988064922883985397e-01
3.985732507878463782e+00,-1.816657482026427628e+00,3.778336765648124818e-01,1.081055487433805418e+00,-8.277251465430172928e-02,4.019354149810993038e-01
4.003137453327714645e+00,-1.808468769647674002e+00,3.802238280905063106e-01,1.078160837054672472e+00,-8.569736560533491865e-02,4.050696337455728657e-01
4.020542398776965953e+00,-1.800211209348485664e+00,3.825976527998929400e-01,1.075300752512663882e+00,-8.865639102125234816e-02,4.082088600474497730e-01
4.037947344226216373e+00,-1.791884891829653270e+00,3.849548032987029078e-01,1.072476199847623102e+00,-9.165006569085265564e-02,4.113527950766637797e-01
4.055352289675467681e+00,-1.783489919797887735e+00,3.872949259711403469e-01,1.069688151611465354e+00,-9.467886345177473073e-02,4.145011296881456753e-01
4.072757235124718100e+00,-1.775026408031987080e+00,3.896176610153798681e-01,1.066937586025610507e+00,-9.774325684398170455e-02,4.176535443474440057e-01
4.090162180573969408e+00,-1.766494483429381201e+00,3.919226424785891560e-01,1.064225486074499294e+00,-1.008437167320586220e-01,4.208097090820087094e-01
4.107567126023219828e+00,-1.757894285030983550e+00,3.942094982915163581e-01,1.061552838530301912e+00,-1.039807118940760389e-01,4.239692834389449660e-01
4.124972071472471136e+00,-1.749225964022021129e+00,3.964778503026833989e-01,1.058920632903522119e+00,-1.071547085746047678e-01,4.271319164501346521e-01
4.142377016921722443e+00,-1.740489683706272661e+00,3.987273143122145869e-01,1.056329860313777180e+00,-1.103661699992689871e-01,4.302972466057038980e-01
4.159781962370972863e+00,-1.731685619450819003e+00,4.009575001053298782e-01,1.053781512274552856e+00,-1.136155558480302086e-01,4.334649018369247098e-01
4.177186907820224171e+00,-1.722813958598102380e+00,4.031680114855183961e-01,1.051276579385222787e+00,-1.169033216841657008e-01,4.366344995097380388e-01
4.194591853269474591e+00,-1.713874900341727292e+00,4.053584463073978683e-01,1.048816049923060323e+00,-1.202299183356665829e-01,4.398056464302083080e-01
4.211996798718725898e+00,-1.704868655562010948e+00,4.075283965092557636e-01,1.046400908327350887e+00,-1.235957912255243735e-01,4.429779388633507398e-01
4.229401744167976318e+00,-1.695795446616869429e+00,4.096774481452455374e-01,1.044032133567049492e+00,-1.270013796470844114e-01,4.461509625669110579e-01
4.246806689617227626e+00,-1.686655507083099526e+00,4.118051814171970193e-01,1.041710697382685291e+00,-1.304471159803454738e-01,4.493242928418384463e-01
4.264211635066478934e+00,-1.677449081442586198e+00,4.139111707059709433e-01,1.039437562392411474e+00,-1.339334248447419939e-01,4.524974946013574639e-01
4.281616580515729353e+00,-1.668176424707315642e+00,4.159949846022636399e-01,1.037213680051215059e+00,-1.374607221835914550e-01,4.556701224607418999e-01
4.299021525964980661e+00,-1.658837801976404069e+00,4.180561859367302180e-01,1.035039988451324167e+00,-1.410294142749862756e-01,4.588417208500933930e-01
4.316426471414231081e+00,-1.649433487917576491e+00,4.200943318092535406e-01,1.032917409950787846e+00,-1.446398966634799554e-01,4.620118241526564029e-01
4.333831416863482389e+00,-1.639963766164648673e+00,4.221089736171422802e-01,1.030846848616017830e+00,-1.482925530064525266e-01,4.651799568714574118e-01
4.351236362312733696e+00,-1.630428928621627804e+00,4.240996570819784428e-01,1.028829187462790618e+00,-1.519877538285174245e-01,4.683456338273234709e-01
4.368641307761984116e+00,-1.620829274662937580e+00,4.260659222747726904e-01,1.026865285478768985e+00,-1.557258551767806976e-01,4.715083603916470079e-01
4.386046253211235424e+00,-1.611165110218080621e+00,4.280073036390042440e-01,1.024955974409019976e+00,-1.595071971691444934e-01,4.746676327575943266e-01
4.403451198660485844e+00,-1.601436746727691096e+00,4.299233300110277267e-01,1.023102055284251355e+00,-1.633321024271745803e-01,4.778229382538245473e-01
4.420856144109737151e+00,-1.591644499956391456e+00,4.318135246372244440e-01,1.021304294669546753e+00,-1.672008743843193534e-01,4.809737557051978474e-01
4.438261089558987571e+00,-1.581788688646172503e+00,4.336774051871416513e-01,1.019563420609215454e+00,-1.711137954594536270e-01,4.841195558453952885e-01
4.455666035008238879e+00,-1.571869632992070720e+00,4.355144837617183073e-01,1.017880118240978682e+00,-1.750711250848369094e-01,4.872598017868776665e-01
4.473070980457490187e+00,-1.561887652919769609e+00,4.373242668955131807e-01,1.016255025050039729e+00,-1.790730975765893462e-01,4.903939495541519977e-01
4.490475925906740606e+00,-1.551843066142281291e+00,4.391062555516492827e-01,1.014688725730602314e+00,-1.831199198347162604e-01,4.935214486869309858e-01
4.507880871355991914e+00,-1.541736185970131068e+00,4.408599451079427967e-01,1.013181746619073786e+00,-1.872117688585137885e-01,4.966417429204387779e-01
4.525285816805242334e+00,-1.531567318846355219e+00,4.425848253323970138e-01,1.011734549659463411e+00,-1.913487890618633669e-01,4.997542709508590031e-01
4.542690762254493642e+00,-1.521336761574086038e+00,4.442803803459137169e-01,1.010347525857300921e+00,-1.955310893714674869e-01,5.028584672947572498e-01
4.560095707703744061e+00,-1.511044798200563255e+00,4.459460885696734933e-01,1.009020988173713107e+00,-1.997587400894318965e-01,5.059537632522117523e-01
4.577500653152995369e+00,-1.500691696516866402e+00,4.475814226541826035e-01,1.007755163806001164e+00,-2.040317694997998421e-01,5.090395879844151761e-01
4.594905598602246677e+00,-1.490277704127618952e+00,4.491858493864366308e-01,1.006550185795113572e+00,-2.083501601965926098e-01,5.121153697176253905e-01
4.612310544051497097e+00,-1.479803044039083693e+00,4.507588295710190374e-01,1.005406083893656044e+00,-2.127138451086509618e-01,5.151805370866061606e-01
4.629715489500748404e+00,-1.469267909707555830e+00,4.522998178802021818e-01,1.004322774620461267e+00,-2.171227031939978735e-01,5.182345206320815301e-01
4.647120434949998824e+00,-1.458672459482492689e+00,4.538082626672370057e-01,1.003300050419074774e+00,-2.215765547735590868e-01,5.212767544682749277e-01
4.664525380399250132e+00,-1.448016810370348573e+00,4.552836057359849198e-01,1.002337567827649600e+00,-2.260751564708124439e-01,5.243066781383295405e-01
4.681930325848501440e+00,-1.437301031035468579e+00,4.567252820588189599e-01,1.001434834556513165e+00,-2.306181957202164401e-01,5.273237386773106383e-01
4.699335271297751859e+00,-1.426525133943418622e+00,4.581327194332858732e-01,1.000591195356809182e+00,-2.352052848030421195e-01,5.303273929046279367e-01
4.716740216747003167e+00,-1.415689066539644436e+00,4.595053380663188247e-01,9.998058165489002169e-01,-2.398359543643829306e-01,5.333171099700818596e-01
4.734145162196253587e+00,-1.404792701342132855e+00,4.608425500727826307e-01,9.990776690622996670e-01,-2.445096463595439196e-01,5.362923741803764521e-01
4.751550107645504895e+00,-1.393835824810493174e+00,4.621437588727644874e-01,9.984055098194251077e-01,-2.492257063715958287e-01,5.392526881358870039e-01
4.768955053094755314e+00,-1.382818124835408558e+00,4.634083584692104130e-01,9.977878612729889074e-01,-2.539833752344104467e-01,5.421975762107326124e-01
4.786359998544006622e+00,-1.371739176671253224e+00,4.646357325841889985e-01,9.972229888808235021e-01,-2.587817798868409791e-01,5.451265884128593253e-01
4.803764943993257930e+00,-1.360598427110627950e+00,4.658252536281201617e-01,9.967088762717721817e-01,-2.636199233735546654e-01,5.480393046648792676e-01
4.821169889442508349e+00,-1.349395176672073982e+00,4.669762814716351684e-01,9.962431978212012984e-01,-2.684966738961339638e-01,5.509353395509269946e-01
4.838574834891759657e+00,-1.338128559540937568e+00,4.680881619841870123e-01,9.958232883138267155e-01,-2.734107528040283230e-01,5.538143475797911996e-01
4.855979780341010077e+00,-1.326797520967710309e+00,4.691602252969362397e-01,9.954461093238430314e-01,-2.783607213983331774e-01,5.566760290201251404e-01
4.873384725790261385e+00,-1.315400791787591173e+00,4.701917837396075162e-01,9.951082118865463011e-01,-2.833449664016709502e-01,5.595201363696794550e-01
4.890789671239511804e+00,-1.303936859679005744e+00,4.711821293916867992e-01,9.948056949702741569e-01,-2.883616839239406260e-01,5.623464815272576356e-01
4.908194616688763112e+00,-1.292403936726598923e+00,4.721305311772442947e-01,9.945341591808098958e-01,-2.934088617256601084e-01,5.651549437435362533e-01
4.925599562138014420e+00,-1.280799922795331280e+00,4.730362314194638818e-01,9.942886550403693402e-01,-2.984842595469945348e-01,5.679454784350018715e-01
4.943004507587264840e+00,-1.269122364155972571e+00,4.738984417552498662e-01,9.940636250775357619e-01,-3.035853872302632928e-01,5.707181269540800850e-01
4.960409453036516148e+00,-1.257368406728121224e+00,4.747163382915774998e-01,9.938528388403105041e-01,-3.087094803152826694e-01,5.734730274179962173e-01
4.977814398485766567e+00,-1.245534743224397278e+00,4.754890558630102126e-01,9.936493197987057435e-01,-3.138534727287477510e-01,5.762104267089616094e-01
4.995219343935017875e+00,-1.233617553388594912e+00,4.762156812233665493e-01,9.934452629326043782e-01,-3.190139661190585230e-01,5.789306937687567212e-01
5.012624289384268295e+00,-1.221612436421707582e+00,4.768952449731390097e-01,9.932319416012668212e-01,-3.241871953043705123e-01,5.816343343214110950e-01
5.030029234833519602e+00,-1.209514334583770667e+00,4.775267119870999499e-01,9.929996020590993178e-01,-3.293689892018469845e-01,5.843220071680661487e-01
5.047434180282770910e+00,-1.197317446848563227e+00,4.781089700626181549e-01,9.927373437145764479e-01,-3.345547264875179394e-01,5.869945422075752983e-01
5.064839125732021330e+00,-1.185015131375724895e+00,4.786408164575343127e-01,9.924329829226977706e-01,-3.397392850963902311e-01,5.896529603440371359e-01
5.082244071181272638e+00,-1.172599795456582328e+00,4.791209419259145896e-01,9.920728977548141092e-01,-3.449169845093094655e-01,5.922984954468524244e-01
5.099649016630523057e+00,-1.160062771494475564e+00,4.795479117895654619e-01,9.916418508046770386e-01,-3.500815195853705375e-01,5.949326185280924273e-01
5.117053962079774365e+00,-1.147394177510509650e+00,4.799201435019244677e-01,9.911227866725453861e-01,-3.552258844868873555e-01,5.975570642931662402e-01
5.134458907529025673e+00,-1.134582760640115096e+00,4.802358800682258178e-01,9.904966003341888481e-01,-3.603422850115540754e-01,6.001738602000766809e-01
5.151863852978276093e+00,-1.121615722130868908e+00,4.804931585816730744e-01,9.897418721745160353e-01,-3.654220374019125361e-01,6.027853581246404024e-01
5.169268798427527400e+00,-1.108478522504704467e+00,4.806897730207502772e-01,9.888345650897841788e-01,-3.704554514615636118e-01,6.053942686666239359e-01
5.186673743876777820e+00,-1.095154665858305121e+00,4.808232303304487143e-01,9.877476788068997315e-01,-3.754316955981741311e-01,6.080036980351486431e-01
5.204078689326029128e+00,-1.081625462812102256e+00,4.808906986853060950e-01,9.864508565382488214e-01,-3.803386412791725513e-01,6.106171873082111290e-01
5.221483634775279548e+00,-1.067869772470749545e+00,4.808889467137844598e-01,9.849099394403381114e-01,-3.851626843939827682e-01,6.132387536544032791e-01
5.238888580224530855e+00,-1.053863725041943811e+00,4.808142723661690821e-01,9.830864652944324433e-01,-3.898885412647174475e-01,6.158729328145569060e-01
5.256293525673782163e+00,-1.039580428621700303e+00,4.806624200540449698e-01,9.809371096810663992e-01,-3.944990176731476561e-01,6.185248217426120299e-01
5.273698471123032583e+00,-1.024989666268759647e+00,4.804284847110682488e-01,9.784130710820465593e-01,-3.989747504615940299e-01,6.212001197708462152e-01
5.291103416572283891e+00,-1.010057593061721937e+00,4.801068015682577461e-01,9.754594063290610295e-01,-4.032939232588526046e-01,6.239051659659980986e-01
5.308508362021534310e+00,-9.947464475758804880e-01,4.796908207650698031e-01,9.720143302496834226e-01,-4.074319609704990519e-01,6.266469694548560954e-01
5.325913307470785618e+00,-9.790142983329992443e-01,4.791729665118078518e-01,9.680085039332930741e-01,-4.113612121809359090e-01,6.294332284078097972e-01
5.343318252920036038e+00,-9.628148533986318203e-01,4.785444814804017399e-01,9.633643504290024806e-01,-4.150506348582177485e-01,6.322723320896190824e-01
5.360723198369287346e+00,-9.460973704055491984e-01,4.777952585450526701e-01,9.579954553885209334e-01,-4.184655089567765884e-01,6.351733389768551286e-01
5.378128143818538653e+00,-9.288067145639087308e-01,4.769136640397937943e-01,9.518061332091818372e-01,-4.215672096767638655e-01,6.381459225316895578e-01
5.395533089267789073e+00,-9.108836229190843126e-01,4.758863594419237564e-01,9.446912657715279549e-01,-4.243130868404695888e-01,6.412002750453908995e-01
5.412938034717040381e+00,-8.922652428178603490e-01,4.746981318582944587e-01,9.365365486482858381e-01,-4.266565079972927665e-01,6.443469593862864997e-01
5.430342980166290801e+00,-8.728860189698353089e-01,4.733317477867451384e-01,9.272193044412817553e-01,-4.285471334552857781e-01,6.475966990131458711e-01
5.447747925615542108e+00,-8.526790034175709687e-01,4.717678490395652569e-01,9.166100379917088148e-01,-4.299314973455492517e-01,6.509600988690320555e-01
5.465152871064793416e+00,-8.315776521141460265e-01,4.699849138488810252e-01,9.045749044831618013e-01,-4.307539659054782089e-01,6.544472943981185509e-01
5.482557816514043836e+00,-8.095181463440973557e-01,4.679593090771993480e-01,8.909792282669415364e-01,-4.309581277386959619e-01,6.580675334100213325e-01
5.499962761963295144e+00,-7.864422334736169695e-01,4.656654598620665886e-01,8.756921376800976820e-01,-4.304886368023013721e-01,6.618287058861566097e-01
5.517367707412545563e+00,-7.623005186346630824e-01,4.630761595167848799e-01,8.585922638455331102e-01,-4.292934756220175285e-01,6.657368493305430013e-01
5.534772652861796871e+00,-7.370560607289253774e-01,4.601630338915760343e-01,8.395742934891395892e-01,-4.273265366387708486e-01,6.697956701121714485e-01
5.552177598311047291e+00,-7.106880426331022571e-01,4.568971602286873712e-01,8.185559849814354472e-01,-4.245503428214612573e-01,6.740061315637377870e-01
5.569582543760298599e+00,-6.831952130891860708e-01,4.532498217093405835e-01,7.954850859739477364e-01,-4.209386603055772502e-01,6.783661639074297645e-01
5.586987489209549906e+00,-6.545987566692735848e-01,4.491933579651042341e-01,7.703454736948938120e-01,-4.164787151942433985e-01,6.828705462359885292e-01
5.604392434658800326e+00,-6.249442569665093483e-01,4.447020528961275199e-01,7.431618182555341789e-01,-4.111727314255888555e-01,6.875109953018154751e-01
5.621797380108051634e+00,-5.943024865836071813e-01,4.397529889096417066e-01,7.140021721634808305e-01,-4.050385656679478807e-01,6.922764710557786083e-01
5.639202325557302053e+00,-5.627688806927453324e-01,4.343267950322228788e-01,6.829781124921536772e-01,-3.981093231628492490e-01,6.971536791131244248e-01
5.656607271006553361e+00,-5.304617079469300389e-01,4.284082267880337525e-01,6.502423676173888500e-01,-3.904319747816417663e-01,7.021277221274997427e-01
5.674012216455803781e+00,-4.975191111130142230e-01,4.219865366344339730e-01,6.159841835327786175e-01,-3.820651300155673558e-01,7.071828320634353515e-01
5.691417161905055089e+00,-4.640953163700769490e-01,4.150556206374900747e-01,5.804229547232649944e-01,-3.730762229807851327e-01,7.123031080498312129e-01
5.708822107354306397e+00,-4.303563805282661359e-01,4.076139540910267423e-01,5.438008075402676056e-01,-3.635384186695451159e-01,7.174731907097805506e-01
5.726227052803556816e+00,-3.964758514487488061e-01,3.996643505769857385e-01,5.063748586958920495e-01,-3.535275402168043257e-01,7.226788207815366682e-01
5.743631998252808124e+00,-3.626306672539187370e-01,3.912135922011412692e-01,4.684097913253496004e-01,-3.431192654062675262e-01,7.279072523486564972e-01
5.761036943702058544e+00,-3.289975342981598105e-01,3.822719826907848284e-01,4.301712339483576564e-01,-3.323867615486724714e-01,7.331475135917117081e-01
5.778441889151309852e+00,-2.957499254500172148e-01,3.728528711912170723e-01,3.919202398169755464e-01,-3.213988431619831942e-01,7.383905264353433084e-01
5.795846834600561159e+00,-2.630557486312178339e-01,3.629721856558622561e-01,3.539089857187353583e-01,-3.102186629171169718e-01,7.436291086281043849e-01
5.813251780049811579e+00,-2.310756631441912290e-01,3.526480035881318642e-01,3.163776662734587020e-01,-2.989028921434763175e-01,7.488578874689396647e-01
5.830656725499062887e+00,-1.999619728116962813e-01,3.419001769114450306e-01,2.795524626308101834e-01,-2.875013149324192052e-01,7.540731547401031687e-01
5.848061670948313306e+00,-1.698579991614777573e-01,3.307500184040364499e-01,2.436444116680469285e-01,-2.760567468181199247e-01,7.592726891633014841e-01
5.865466616397564614e+00,-1.408978302598001553e-01,3.192200500898765836e-01,2.088489847179529624e-01,-2.646051901041779342e-01,7.644555675835283948e-01
5.882871561846815034e+00,-1.132063456688336273e-01,3.073338092582682535e-01,1.753461925234761909e-01,-2.531761477515244163e-01,7.696219804579845780e-01
5.900276507296066342e+00,-8.689943011856664234e-02,2.951157050617732591e-01,1.433010551962968226e-01,-2.417930317995419520e-01,7.747730619690178511e-01
5.917681452745317650e+00,-6.208430373442866412e-02,2.825909174388600009e-01,1.128643043403291801e-01,-2.304736173009793720e-01,7.799107406476291082e-01
5.935086398194568069e+00,-3.885991224712783548e-02,2.697853299457288467e-01,8.417321364679303253e-02,-2.192305067186585410e-01,7.850376129320022489e-01
5.952491343643819377e+00,-1.731733488439639659e-02,2.567254885570823264e-01,5.735248090402156329e-02,-2.080715816685946018e-01,7.901568395443322457e-01
5.969896289093069797e+00,2.459820176465600527e-03,2.434385793034479772e-01,3.251510692607242903e-02,-1.970004284962260932e-01,7.952720628041738404e-01
5.987301234542321104e+00,2.039505303798469504e-02,2.299524185446707447e-01,9.763234952633668973e-03,-1.860167315419429257e-01,8.003873418345913704e-01
6.004706179991571524e+00,3.641865453063360125e-02,2.162954506062267634e-01,-1.081107217131864300e-02,-1.751166333875395498e-01,8.055071018971246000e-01
6.022111125440822832e+00,5.046744059118010717e-02,2.024967483565042470e-01,-2.912512972413348195e-02,-1.642930652346011877e-01,8.106360936826477737e-01
6.039516070890074140e+00,6.248454099319554478e-02,1.885860130488875575e-01,-4.510500953465544638e-02,-1.535360531876926171e-01,8.157793581946003458e-01
6.056921016339324559e+00,7.241924176307955319e-02,1.745935703871494826e-01,-5.868500047216178295e-02,-1.428330078802278746e-01,8.209421928321044559e-01
6.074325961788575867e+00,8.022687843479875403e-02,1.605503603058336670e-01,-6.980714984306603255e-02,-1.321690057991899425e-01,8.261301143878299058e-01
6.091730907237826287e+00,8.586877578484358731e-02,1.464879184056983863e-01,-7.842088344027073332e-02,-1.215270709794249587e-01,8.313488149182520770e-01
6.109135852687077595e+00,8.931222865947055500e-02,1.324383473674713985e-01,-8.448270190799186952e-02,-1.108884655361332128e-01,8.366041068379558299e-01
6.126540798136328903e+00,9.053051782091202371e-02,1.184342770050448163e-01,-8.795595166980842150e-02,-1.002329968332454080e-01,8.419018541585246984e-01
6.143945743585579322e+00,8.950295430168844768e-02,1.045088119301989943e-01,-8.881066961833510021e-02,-8.953934797233362164e-02,8.472478875586689773e-01
6.161350689034830630e+00,8.621494550528031875e-02,9.069546610174726575e-02,-8.702350181175617927e-02,-7.878543675726010220e-02,8.526479019465256215e-01
6.178755634484081050e+00,8.065807619625474378e-02,7.702808383633580336e-02,-8.257769732644575089e-02,-6.794880638664080319e-02,8.581073363478788352e-01
6.196160579933332357e+00,7.283019757809115757e-02,6.354074717656775506e-02,-7.546317897325767465e-02,-5.700704892557368481e-02,8.636312372869767717e-01
6.213565525382582777e+00,6.273551787905599919e-02,5.026766985064222426e-02,-6.567669264636190329e-02,-4.593826022996985725e-02,8.692241082478928682e-01
6.230970470831834085e+00,5.038468828969166341e-02,3.724307841623691884e-02,-5.322203655688539231e-02,-3.472152260759968356e-02,8.748897492092833073e-01
6.248375416281085393e+00,3.579487876594560081e-02,2.450108155265781629e-02,-3.811037051775682805e-02,-2.333740930509282940e-02,8.806310915030236552e-01
6.265780361730335812e+00,1.898983917948263850e-02,1.207552883293461395e-02,-2.036060389984994251e-02,-1.176850313494015067e-02,8.864500342144875367e-01
6.283185307179586232e+00,-5.739523163683646345e-08,-1.393538602532939930e-07,1.409219807825545789e-07,7.958180606865150608e-08,8.923472888833394734e-01
